<svg width="35" height="44" viewBox="0 0 35 44" fill="none" xmlns="http://www.w3.org/2000/svg">
<path fill-rule="evenodd" clip-rule="evenodd" d="M27.3059 25.8621H7.29929C6.92015 25.8621 6.61279 25.5854 6.61279 25.244V16.5918C6.61279 16.2505 6.92015 15.9738 7.29929 15.9738H27.3059C27.685 15.9738 27.9924 16.2505 27.9924 16.5918V25.244C27.9924 25.5854 27.685 25.8621 27.3059 25.8621ZM26.6194 17.2097H7.98575V24.626H26.6194V17.2097Z" fill="#55CAEE"/>
<path d="M7.98575 17.2097V16.7097H7.48575V17.2097H7.98575ZM26.6194 17.2097H27.1194V16.7097H26.6194V17.2097ZM7.98575 24.626H7.48575V25.126H7.98575V24.626ZM26.6194 24.626V25.126H27.1194V24.626H26.6194ZM7.29929 26.3621H27.3059V25.3621H7.29929V26.3621ZM6.11279 25.244C6.11279 25.9096 6.69473 26.3621 7.29929 26.3621V25.3621C7.23136 25.3621 7.17941 25.3374 7.1484 25.3094C7.11823 25.2823 7.11279 25.2585 7.11279 25.244H6.11279ZM6.11279 16.5918V25.244H7.11279V16.5918H6.11279ZM7.29929 15.4738C6.69473 15.4738 6.11279 15.9262 6.11279 16.5918H7.11279C7.11279 16.5773 7.11823 16.5535 7.1484 16.5264C7.17941 16.4985 7.23136 16.4738 7.29929 16.4738V15.4738ZM27.3059 15.4738H7.29929V16.4738H27.3059V15.4738ZM28.4924 16.5918C28.4924 15.9262 27.9105 15.4738 27.3059 15.4738V16.4738C27.3738 16.4738 27.4258 16.4985 27.4568 16.5264C27.487 16.5535 27.4924 16.5773 27.4924 16.5918H28.4924ZM28.4924 25.244V16.5918H27.4924V25.244H28.4924ZM27.3059 26.3621C27.9105 26.3621 28.4924 25.9096 28.4924 25.244H27.4924C27.4924 25.2585 27.487 25.2823 27.4568 25.3094C27.4258 25.3374 27.3738 25.3621 27.3059 25.3621V26.3621ZM7.98575 17.7097H26.6194V16.7097H7.98575V17.7097ZM8.48575 24.626V17.2097H7.48575V24.626H8.48575ZM26.6194 24.126H7.98575V25.126H26.6194V24.126ZM26.1194 17.2097V24.626H27.1194V17.2097H26.1194Z" fill="#55CAEE"/>
<path fill-rule="evenodd" clip-rule="evenodd" d="M18.5089 29.1642H17.332C16.9529 29.1642 16.6455 29.4409 16.6455 29.7822C16.6455 30.1235 16.9529 30.4001 17.332 30.4001H18.5089C18.888 30.4001 19.1954 30.1235 19.1954 29.7822C19.1954 29.4409 18.888 29.1642 18.5089 29.1642Z" fill="#55CAEE" stroke="#55CAEE"/>
<path fill-rule="evenodd" clip-rule="evenodd" d="M22.9076 29.1642H21.7307C21.3515 29.1642 21.0442 29.4409 21.0442 29.7822C21.0442 30.1235 21.3515 30.4001 21.7307 30.4001H22.9076C23.2867 30.4001 23.5941 30.1235 23.5941 29.7822C23.5941 29.4409 23.2867 29.1642 22.9076 29.1642Z" fill="#55CAEE" stroke="#55CAEE"/>
<path fill-rule="evenodd" clip-rule="evenodd" d="M27.306 29.1642H26.1291C25.75 29.1642 25.4426 29.4409 25.4426 29.7822C25.4426 30.1235 25.75 30.4001 26.1291 30.4001H27.306C27.6851 30.4001 27.9925 30.1235 27.9925 29.7822C27.9925 29.4409 27.6851 29.1642 27.306 29.1642Z" fill="#55CAEE" stroke="#55CAEE"/>
<path fill-rule="evenodd" clip-rule="evenodd" d="M18.5089 31.954H17.332C16.9529 31.954 16.6455 32.2307 16.6455 32.5721C16.6455 32.9135 16.9529 33.1902 17.332 33.1902H18.5089C18.888 33.1902 19.1954 32.9135 19.1954 32.5721C19.1954 32.2307 18.888 31.954 18.5089 31.954V31.954Z" fill="#55CAEE" stroke="#55CAEE"/>
<path fill-rule="evenodd" clip-rule="evenodd" d="M22.9076 31.954H21.7307C21.3515 31.954 21.0442 32.2307 21.0442 32.5721C21.0442 32.9135 21.3515 33.1902 21.7307 33.1902H22.9076C23.2867 33.1902 23.5941 32.9135 23.5941 32.5721C23.5941 32.2307 23.2867 31.954 22.9076 31.954V31.954Z" fill="#55CAEE" stroke="#55CAEE"/>
<path fill-rule="evenodd" clip-rule="evenodd" d="M27.306 31.954H26.1291C25.75 31.954 25.4426 32.2307 25.4426 32.5721C25.4426 32.9135 25.75 33.1902 26.1291 33.1902H27.306C27.6851 33.1902 27.9925 32.9135 27.9925 32.5721C27.9925 32.2307 27.6851 31.954 27.306 31.954V31.954Z" fill="#55CAEE" stroke="#55CAEE"/>
<path fill-rule="evenodd" clip-rule="evenodd" d="M18.5089 34.7439H17.332C16.9529 34.7439 16.6455 35.0206 16.6455 35.3619C16.6455 35.7033 16.9529 35.98 17.332 35.98H18.5089C18.888 35.98 19.1954 35.7033 19.1954 35.3619C19.1954 35.0206 18.888 34.7439 18.5089 34.7439Z" fill="#55CAEE" stroke="#55CAEE"/>
<path fill-rule="evenodd" clip-rule="evenodd" d="M22.9076 34.7439H21.7307C21.3515 34.7439 21.0442 35.0206 21.0442 35.3619C21.0442 35.7033 21.3515 35.98 21.7307 35.98H22.9076C23.2867 35.98 23.5941 35.7033 23.5941 35.3619C23.5941 35.0206 23.2867 34.7439 22.9076 34.7439Z" fill="#55CAEE" stroke="#55CAEE"/>
<path fill-rule="evenodd" clip-rule="evenodd" d="M27.306 34.7439H26.1291C25.75 34.7439 25.4426 35.0206 25.4426 35.3619C25.4426 35.7033 25.75 35.98 26.1291 35.98H27.306C27.6851 35.98 27.9925 35.7033 27.9925 35.3619C27.9925 35.0206 27.6851 34.7439 27.306 34.7439Z" fill="#55CAEE" stroke="#55CAEE"/>
<path fill-rule="evenodd" clip-rule="evenodd" d="M32.9188 1H1.6865C1.30736 1 1 1.2767 1 1.61802V12.5659C1 12.9072 1.30736 13.1839 1.6865 13.1839H3.08225V42.231C3.08225 42.5723 3.38961 42.849 3.76876 42.849H30.8365C31.2156 42.849 31.523 42.5723 31.523 42.231V13.1839H32.9188C33.2979 13.1839 33.6053 12.9072 33.6053 12.5659V1.61802C33.6053 1.2767 33.2979 1 32.9188 1ZM30.1501 41.6128H4.45529V13.1837H30.1501V41.6128ZM2.37302 11.9476H32.2323V2.23596H2.37302V11.9476Z" fill="#55CAEE"/>
<path d="M3.08225 13.1839H3.58225V12.6839H3.08225V13.1839ZM31.523 13.1839V12.6839H31.023V13.1839H31.523ZM4.45529 41.6128H3.95529V42.1128H4.45529V41.6128ZM30.1501 41.6128V42.1128H30.6501V41.6128H30.1501ZM4.45529 13.1837V12.6837H3.95529V13.1837H4.45529ZM30.1501 13.1837H30.6501V12.6837H30.1501V13.1837ZM32.2323 11.9476V12.4476H32.7323V11.9476H32.2323ZM2.37302 11.9476H1.87302V12.4476H2.37302V11.9476ZM32.2323 2.23596H32.7323V1.73596H32.2323V2.23596ZM2.37302 2.23596V1.73596H1.87302V2.23596H2.37302ZM1.6865 1.5H32.9188V0.5H1.6865V1.5ZM1.5 1.61802C1.5 1.60356 1.50544 1.57977 1.53561 1.55262C1.56662 1.5247 1.61857 1.5 1.6865 1.5V0.5C1.08193 0.5 0.5 0.95243 0.5 1.61802H1.5ZM1.5 12.5659V1.61802H0.5V12.5659H1.5ZM1.6865 12.6839C1.61857 12.6839 1.56662 12.6592 1.53561 12.6313C1.50544 12.6041 1.5 12.5803 1.5 12.5659H0.5C0.5 13.2315 1.08193 13.6839 1.6865 13.6839V12.6839ZM3.08225 12.6839H1.6865V13.6839H3.08225V12.6839ZM3.58225 42.231V13.1839H2.58225V42.231H3.58225ZM3.76876 42.349C3.70083 42.349 3.64887 42.3243 3.61786 42.2964C3.58769 42.2692 3.58225 42.2454 3.58225 42.231H2.58225C2.58225 42.8966 3.16419 43.349 3.76876 43.349V42.349ZM30.8365 42.349H3.76876V43.349H30.8365V42.349ZM31.023 42.231C31.023 42.2454 31.0176 42.2692 30.9874 42.2964C30.9564 42.3243 30.9044 42.349 30.8365 42.349V43.349C31.4411 43.349 32.023 42.8966 32.023 42.231H31.023ZM31.023 13.1839V42.231H32.023V13.1839H31.023ZM32.9188 12.6839H31.523V13.6839H32.9188V12.6839ZM33.1053 12.5659C33.1053 12.5803 33.0998 12.6041 33.0696 12.6313C33.0386 12.6592 32.9867 12.6839 32.9188 12.6839V13.6839C33.5233 13.6839 34.1053 13.2315 34.1053 12.5659H33.1053ZM33.1053 1.61802V12.5659H34.1053V1.61802H33.1053ZM32.9188 1.5C32.9867 1.5 33.0386 1.5247 33.0696 1.55261C33.0998 1.57977 33.1053 1.60355 33.1053 1.61802H34.1053C34.1053 0.952432 33.5233 0.5 32.9188 0.5V1.5ZM4.45529 42.1128H30.1501V41.1128H4.45529V42.1128ZM3.95529 13.1837V41.6128H4.95529V13.1837H3.95529ZM30.1501 12.6837H4.45529V13.6837H30.1501V12.6837ZM30.6501 41.6128V13.1837H29.6501V41.6128H30.6501ZM32.2323 11.4476H2.37302V12.4476H32.2323V11.4476ZM31.7323 2.23596V11.9476H32.7323V2.23596H31.7323ZM2.37302 2.73596H32.2323V1.73596H2.37302V2.73596ZM2.87302 11.9476V2.23596H1.87302V11.9476H2.87302Z" fill="#55CAEE"/>
<path fill-rule="evenodd" clip-rule="evenodd" d="M12.3885 9.03438H9.78298L9.375 9.91199H8.28406L10.5362 5.05847H11.6271L13.8792 9.91057H12.7965L12.3885 9.03438ZM12.0351 8.27112L11.0858 6.22937L10.136 8.27112H12.0351Z" fill="#55CAEE"/>
<path d="M9.78298 9.03438V8.53438H9.46403L9.32958 8.8236L9.78298 9.03438ZM12.3885 9.03438L12.8418 8.82332L12.7073 8.53438H12.3885V9.03438ZM9.375 9.91199V10.412H9.69395L9.82841 10.1228L9.375 9.91199ZM8.28406 9.91199L7.83051 9.70153L7.50084 10.412H8.28406V9.91199ZM10.5362 5.05847V4.55847H10.217L10.0826 4.84802L10.5362 5.05847ZM11.6271 5.05847L12.0806 4.84797L11.9463 4.55847H11.6271V5.05847ZM13.8792 9.91057V10.4106H14.6625L14.3328 9.70007L13.8792 9.91057ZM12.7965 9.91057L12.3432 10.1216L12.4778 10.4106H12.7965V9.91057ZM11.0858 6.22937L11.5392 6.01856L11.0859 5.04366L10.6324 6.01849L11.0858 6.22937ZM12.0351 8.27112V8.77112H12.819L12.4885 8.06031L12.0351 8.27112ZM10.136 8.27112L9.68269 8.06024L9.35202 8.77112H10.136V8.27112ZM9.78298 9.53438H12.3885V8.53438H9.78298V9.53438ZM9.82841 10.1228L10.2364 9.24515L9.32958 8.8236L8.9216 9.70121L9.82841 10.1228ZM8.28406 10.412H9.375V9.41199H8.28406V10.412ZM10.0826 4.84802L7.83051 9.70153L8.73761 10.1224L10.9897 5.26893L10.0826 4.84802ZM11.6271 4.55847H10.5362V5.55847H11.6271V4.55847ZM14.3328 9.70007L12.0806 4.84797L11.1736 5.26898L13.4257 10.1211L14.3328 9.70007ZM12.7965 10.4106H13.8792V9.41057H12.7965V10.4106ZM11.9353 9.24543L12.3432 10.1216L13.2498 9.69952L12.8418 8.82332L11.9353 9.24543ZM10.6324 6.44018L11.5817 8.48193L12.4885 8.06031L11.5392 6.01856L10.6324 6.44018ZM10.5894 8.482L11.5391 6.44025L10.6324 6.01849L9.68269 8.06024L10.5894 8.482ZM12.0351 7.77112H10.136V8.77112H12.0351V7.77112Z" fill="#55CAEE"/>
<path fill-rule="evenodd" clip-rule="evenodd" d="M15.9343 9.91199H16.9072V5.86368H18.6337V5.05847H14.2079V5.86368H15.9343V9.91199Z" fill="#55CAEE" stroke="#55CAEE"/>
<path fill-rule="evenodd" clip-rule="evenodd" d="M20.9159 6.66889L22.6895 9.6291L24.4708 6.66889V9.91199H25.4441V5.05847H24.4708L22.6895 8.01868L20.9159 5.05847H19.9348V9.91199H20.9159V6.66889Z" fill="#55CAEE" stroke="#55CAEE"/>
<path fill-rule="evenodd" clip-rule="evenodd" d="M11.6595 29.1642H7.01885C6.79459 29.1642 6.61279 29.4409 6.61279 29.7822C6.61279 30.1235 6.79459 30.4001 7.01885 30.4001H11.6595C11.8838 30.4001 12.0656 30.1235 12.0656 29.7822C12.0656 29.4409 11.8838 29.1642 11.6595 29.1642Z" fill="#55CAEE" stroke="#55CAEE"/>
</svg>
