<svg width="43" height="43" viewBox="0 0 43 43" fill="none" xmlns="http://www.w3.org/2000/svg">
<path fill-rule="evenodd" clip-rule="evenodd" d="M3.12577 17.6225H4.08509C4.07855 17.6726 4.07419 17.7234 4.07419 17.7753V36.4548H3.42216C2.76578 36.4548 2.23342 36.9872 2.23342 37.6436C2.23342 38.3 2.76578 38.8323 3.42216 38.8323H5.26294H9.77482H14.2869H18.799H23.3109H27.823H32.335H36.8469H38.6877C39.3441 38.8323 39.8765 38.3 39.8765 37.6436C39.8765 36.9872 39.3441 36.4548 38.6877 36.4548H38.0357V17.7753C38.0357 17.7234 38.0313 17.6726 38.0248 17.6225H38.9841C39.8798 17.6225 40.6703 17.0509 40.9509 16.2002C41.2314 15.3494 40.936 14.4198 40.2158 13.8869L21.7621 0.233143C21.3423 -0.0777143 20.768 -0.0777143 20.3481 0.233143L1.89383 13.8869C1.17385 14.4196 0.878444 15.3494 1.15899 16.2002C1.43953 17.0509 2.22985 17.6225 3.12577 17.6225ZM22.1223 36.4549H19.9879V17.7753C19.9879 17.7234 19.9836 17.6727 19.977 17.6226H22.1334C22.1269 17.6727 22.1225 17.7234 22.1225 17.7753V36.4549H22.1223ZM10.9634 36.4549H13.0982V17.7753C13.0982 17.7234 13.1025 17.6727 13.1091 17.6226H10.9525C10.959 17.6727 10.9634 17.7234 10.9634 17.7753V36.4549ZM6.45151 36.4548V18.964H8.58591V36.4548H6.45151ZM15.4756 18.964V36.4548H17.6102V18.964H15.4756ZM24.4996 36.4548V18.964H26.6342V36.4548H24.4996ZM33.524 18.964V36.4548H35.6584V18.964H33.524ZM31.1465 17.7753V36.4549H29.0119V17.7753C29.0119 17.7234 29.0076 17.6727 29.001 17.6226H31.1576C31.1511 17.6727 31.1465 17.7234 31.1465 17.7753ZM38.0545 15.2449L21.0551 2.66755L4.05559 15.2449H38.0545Z" fill="#55CAEE"/>
<path fill-rule="evenodd" clip-rule="evenodd" d="M40.9216 40.2594H1.18875C0.53236 40.2594 0 40.7918 0 41.4481C0 42.1045 0.53236 42.6369 1.18875 42.6369H40.9216C41.578 42.6369 42.1103 42.1045 42.1103 41.4481C42.1103 40.7918 41.5782 40.2594 40.9216 40.2594Z" fill="#55CAEE"/>
</svg>
