<svg width="66" height="88" viewBox="0 0 66 88" fill="none" xmlns="http://www.w3.org/2000/svg">
<g filter="url(#filter0_d)">
<path fill-rule="evenodd" clip-rule="evenodd" d="M32.6687 78.1566C32.6687 78.1566 55.0425 46.6939 55.0425 34.2344C55.0425 21.7749 45.0254 11.6744 32.6687 11.6744C20.312 11.6744 10.2949 21.7749 10.2949 34.2344C10.2949 46.6939 32.6687 78.1566 32.6687 78.1566Z" fill="#014A98" stroke="white" stroke-width="2"/>
<path d="M46.3637 30.8144C46.3637 31.1324 46.3637 31.2915 46.3637 31.6095C46.3637 37.0167 41.9092 41.4697 36.5 41.4697C32.3636 41.4697 28.7045 38.9251 27.2727 35.2673C27.75 40.1974 31.8864 44.1733 37.1364 44.1733C42.5455 44.1733 47.0001 39.7203 47.0001 34.3131C46.841 33.0408 46.6819 31.9276 46.3637 30.8144Z" fill="white"/>
<path d="M42.7047 23.4988C43.6592 25.0891 44.1365 26.8385 44.1365 28.906C44.1365 34.6312 39.5228 39.2432 33.7955 39.2432C32.841 39.2432 31.8864 39.0842 30.9319 38.7661C32.3637 39.5613 33.9546 40.0384 35.7046 40.0384C41.1138 40.0384 45.4092 35.7445 45.4092 30.3373C45.5683 27.6337 44.4547 25.2482 42.7047 23.4988Z" fill="white"/>
<path d="M36.8183 45.4456C30.9319 45.4456 26.1591 40.6745 26.1591 34.7902C26.1591 33.677 26.4773 32.5638 26.9546 31.6095C26.9546 31.6095 26.9546 31.4505 27.1137 31.1324C27.7501 30.0192 28.7046 29.065 29.8183 28.2698C30.4546 27.9517 31.091 27.7927 31.8864 27.4746C31.8864 27.4746 32.6819 27.3156 33.7955 27.1566C37.1365 27.1566 40.0001 29.3831 40.9547 32.4047C40.9547 32.4047 41.1138 32.7228 41.1138 32.8818C42.0683 31.6095 42.5456 29.8602 42.5456 28.1108C42.5456 24.2939 39.841 21.1132 36.341 20.159C35.2274 20.159 34.1137 20 33.0001 20C25.2046 20 19 26.2024 19 33.9951C19 41.6287 25.2046 47.9901 33.0001 47.9901C37.1365 47.9901 40.9547 46.2408 43.5002 43.2191C41.5911 44.6504 39.3638 45.4456 36.8183 45.4456Z" fill="white"/>
</g>
<defs>
<filter id="filter0_d" x="0.294922" y="0.674438" width="64.7476" height="87.2077" filterUnits="userSpaceOnUse" color-interpolation-filters="sRGB">
<feFlood flood-opacity="0" result="BackgroundImageFix"/>
<feColorMatrix in="SourceAlpha" type="matrix" values="0 0 0 0 0 0 0 0 0 0 0 0 0 0 0 0 0 0 127 0"/>
<feOffset dy="-1"/>
<feGaussianBlur stdDeviation="4.5"/>
<feColorMatrix type="matrix" values="0 0 0 0 0 0 0 0 0 0 0 0 0 0 0 0 0 0 0.254218 0"/>
<feBlend mode="normal" in2="BackgroundImageFix" result="effect1_dropShadow"/>
<feBlend mode="normal" in="SourceGraphic" in2="effect1_dropShadow" result="shape"/>
</filter>
</defs>
</svg>
