<?xml version="1.0" encoding="UTF-8"?>
<svg width="222px" height="83px" viewBox="0 0 222 83" version="1.1" xmlns="http://www.w3.org/2000/svg" xmlns:xlink="http://www.w3.org/1999/xlink">
    <!-- Generator: Sketch 52.6 (67491) - http://www.bohemiancoding.com/sketch -->
    <title>Group 4</title>
    <desc>Created with Sketch.</desc>
    <g id="Page-1" stroke="none" stroke-width="1" fill="none" fill-rule="evenodd">
        <g id="Group-4" fill="#000000">
            <g id="apple-icon">
                <path d="M3.4060138,30.7759025 C-3.42169594,42.8909747 0.918805049,61.2762635 8.46913724,72.423917 C12.2379483,77.9972022 16.0536278,83 21.2798643,83 C21.3783676,83 21.4771357,82.9981047 21.578287,82.9940433 C24.0337205,82.8938628 25.8081041,82.1208484 27.5237036,81.3738267 C29.4498141,80.5344765 31.4418583,79.6666968 34.5664259,79.6666968 C37.5390018,79.6666968 39.435985,80.5063177 41.2704769,81.3180505 C43.0784894,82.11787 44.9407846,82.9453069 47.6925225,82.892509 C53.5794196,82.7804152 57.1938558,77.3820397 60.3827683,72.6196751 C63.7104328,67.6472022 65.3796933,62.8193141 65.9429098,60.9743682 L65.9656821,60.9009928 C66.0729236,60.5731047 65.9214615,60.2151625 65.6140359,60.0708484 C65.6055624,60.066787 65.5743168,60.0535199 65.5655786,60.0497292 C64.5289106,59.6162455 55.4353598,55.4912455 55.3397692,44.2482852 C55.2510633,35.1139892 62.1616535,30.2768953 63.5475846,29.4001805 L63.6121943,29.3590253 C63.7623324,29.2601986 63.866926,29.1034296 63.9024083,28.9241877 C63.9378907,28.7452166 63.9008196,28.558935 63.8001979,28.4083935 C59.0302013,21.2706679 51.7192427,20.1949458 48.7757942,20.0655235 C48.3486817,20.0219314 47.9077999,20 47.4650645,20 C44.0079159,20 40.696139,21.3351083 38.0354903,22.407852 C36.1988801,23.1483755 34.6125,23.7879061 33.5183718,23.7879061 C32.2889339,23.7879061 30.6935509,23.1405235 28.8460841,22.391065 C26.3755574,21.3884477 23.5753623,20.2523466 20.610995,20.2523466 C20.540295,20.2523466 20.4706542,20.2531588 20.4020726,20.2545126 C13.5094884,20.358213 6.99661857,24.390343 3.4060138,30.7759025 Z" id="XMLID_229_"></path>
                <path d="M48.2485446,0.000517530903 C44.1760036,0.173437691 39.2906594,2.78690236 36.3706658,6.35250529 C33.8891105,9.34951872 31.4649112,14.3464265 32.1035791,19.3831976 C32.143625,19.6983324 32.3895844,19.9415519 32.6936751,19.9660624 C32.968571,19.9884181 33.2491508,19.9997307 33.5286972,20 C37.510812,20 41.8065768,17.7032863 44.7402635,14.0051651 C47.8279333,10.1001861 49.3892075,5.08873365 48.916924,0.599812479 C48.87972,0.248046545 48.5828635,-0.0132191173 48.2485446,0.000517530903 Z" id="XMLID_230_"></path>
            </g>
            <path d="M87.49,79 L79.57,79 L79.57,35.44 L87.49,35.44 L87.49,79 Z M83.53,18.25 C86.5,18.25 88.39,20.41 88.39,23.2 C88.48,25.9 86.5,28.06 83.35,28.06 C80.56,28.06 78.58,25.9 78.58,23.2 C78.58,20.41 80.65,18.25 83.53,18.25 Z M98.9,79 L98.9,19.06 C102.68,18.43 107.63,17.89 113.93,17.89 C121.67,17.89 127.34,19.69 130.94,22.93 C134.27,25.81 136.25,30.22 136.25,35.62 C136.25,41.11 134.63,45.43 131.57,48.58 C127.43,52.99 120.68,55.24 113.03,55.24 C110.69,55.24 108.53,55.15 106.73,54.7 L106.73,79 L98.9,79 Z M106.73,24.73 L106.73,48.31 C108.44,48.76 110.6,48.94 113.21,48.94 C122.66,48.94 128.42,44.35 128.42,35.98 C128.42,27.97 122.75,24.1 114.11,24.1 C110.69,24.1 108.08,24.37 106.73,24.73 Z M173.49,79 L166.29,79 L165.66,73.51 L165.39,73.51 C162.96,76.93 158.28,79.99 152.07,79.99 C143.25,79.99 138.75,73.78 138.75,67.48 C138.75,56.95 148.11,51.19 164.94,51.28 L164.94,50.38 C164.94,46.78 163.95,40.3 155.04,40.3 C150.99,40.3 146.76,41.56 143.7,43.54 L141.9,38.32 C145.5,35.98 150.72,34.45 156.21,34.45 C169.53,34.45 172.77,43.54 172.77,52.27 L172.77,68.56 C172.77,72.34 172.95,76.03 173.49,79 Z M165.12,64.33 L165.12,56.77 C156.48,56.59 146.67,58.12 146.67,66.58 C146.67,71.71 150.09,74.14 154.14,74.14 C159.81,74.14 163.41,70.54 164.67,66.85 C164.94,66.04 165.12,65.14 165.12,64.33 Z M213.25,15.1 L221.17,15.1 L221.17,67.75 C221.17,71.62 221.26,76.03 221.53,79 L214.42,79 L214.06,71.44 L213.88,71.44 C211.45,76.3 206.14,79.99 199.03,79.99 C188.5,79.99 180.4,71.08 180.4,57.85 C180.31,43.36 189.31,34.45 199.93,34.45 C206.59,34.45 211.09,37.6 213.07,41.11 L213.25,41.11 L213.25,15.1 Z M213.25,60.73 L213.25,53.17 C213.25,52.18 213.16,50.83 212.89,49.84 C211.72,44.8 207.4,40.66 201.46,40.66 C193.27,40.66 188.41,47.86 188.41,57.49 C188.41,66.31 192.73,73.6 201.28,73.6 C206.59,73.6 211.45,70.09 212.89,64.15 C213.16,63.07 213.25,61.99 213.25,60.73 Z" id="iPad"></path>
        </g>
    </g>
</svg>