<svg width="16" height="13" viewBox="0 0 16 13" fill="none" xmlns="http://www.w3.org/2000/svg">
<path d="M8 0L0 5.12676V6.59155H1.06667V13H14.9333V6.59155H16V5.30986L8 0ZM13.5111 11.3521H2.48889V5.49296L7.82222 1.83099L13.3333 5.49296V11.3521H13.5111ZM5.51111 7.32394H10.6667V6.04225H5.51111V7.32394ZM5.51111 9.88732H10.6667V8.60563H5.51111V9.88732Z" fill="#6D6E71"/>
</svg>
