<?xml version="1.0" encoding="utf-8"?>
<!-- Generator: Adobe Illustrator 22.0.1, SVG Export Plug-In . SVG Version: 6.00 Build 0)  -->
<svg version="1.1" id="Capa_1" xmlns="http://www.w3.org/2000/svg" xmlns:xlink="http://www.w3.org/1999/xlink" x="0px" y="0px"
	 viewBox="0 0 80 80" style="enable-background:new 0 0 80 80;" xml:space="preserve">
<style type="text/css">
	.st0{fill:#009BDB;}
	.st1{fill:#858585;}
</style>
<g>
	<path class="st0" d="M35.6,45.6c-0.5,0-0.9-0.2-1.3-0.4c-0.3-0.3-0.5-0.6-0.5-1c0-0.4,0.2-0.7,0.5-1c0.6-0.6,1.8-0.5,2.5,0
		c0.3,0.3,0.5,0.6,0.5,1h1.5c0-0.8-0.4-1.5-1-2.1c-0.4-0.4-0.9-0.6-1.5-0.7v-1.6h-1.5v1.6c-0.6,0.1-1.1,0.3-1.5,0.7
		c-0.6,0.6-1,1.3-1,2.1s0.4,1.5,1,2.1c0.6,0.5,1.4,0.8,2.3,0.8c0.5,0,0.9,0.2,1.3,0.4c0.3,0.3,0.5,0.6,0.5,1c0,0.4-0.2,0.7-0.5,1
		c-0.7,0.6-1.9,0.6-2.5,0c-0.3-0.3-0.5-0.6-0.5-1h-1.5c0,0.8,0.4,1.5,1,2.1c0.4,0.4,0.9,0.6,1.5,0.7v1.6h1.5v-1.6
		c0.6-0.1,1.1-0.4,1.5-0.7c0.6-0.6,1-1.3,1-2.1c0-0.8-0.4-1.5-1-2.1C37.3,45.9,36.5,45.6,35.6,45.6z"/>
	<path class="st0" d="M66.4,40c0-2.5-2-4.5-4.5-4.5v-1.4c0-2.1-1.7-3.8-3.8-3.8H12.9c-2.1,0-3.8,1.7-3.8,3.8v24.6
		c0,2.1,1.7,3.8,3.8,3.8h1.4c0,2.5,2,4.5,4.5,4.5c0,2.5,2,4.5,4.5,4.5h42.9c2.5,0,4.5-2,4.5-4.5V44.5C70.9,42,68.8,40,66.4,40z
		 M12.9,60.9c-1.2,0-2.3-1-2.3-2.3V34c0-1.2,1-2.3,2.3-2.3h45.2c1.2,0,2.3,1,2.3,2.3v24.6c0,1.2-1,2.3-2.3,2.3H12.9z M18.9,65.4
		c-1.7,0-3-1.3-3-3h42.2c2.1,0,3.8-1.7,3.8-3.8V37c1.7,0,3,1.4,3,3v22.4c0,1.7-1.4,3-3,3H18.9z M69.4,66.9c0,1.7-1.4,3-3,3h-43
		c-1.7,0-3-1.3-3-3h41.5c2.5,0,4.5-2,4.5-4.5V41.5c1.7,0,3,1.4,3,3V66.9z"/>
	<path class="st0" d="M52.8,37.1v-0.8H18.2v0.8c0,1.2-1,2.3-2.3,2.3h-0.7v14H16c1.2,0,2.3,1,2.3,2.3v0.8h34.6v-0.8
		c0-1.2,1-2.3,2.3-2.3H56v-14h-0.8C53.8,39.3,52.8,38.3,52.8,37.1z M54.3,51.9c-1.5,0.3-2.6,1.5-2.9,2.9H19.6
		c-0.3-1.5-1.5-2.6-2.9-2.9V40.7c1.5-0.3,2.6-1.5,2.9-2.9h31.8c0.3,1.5,1.5,2.6,2.9,2.9V51.9z"/>
	<rect x="51.7" y="6.4" class="st0" width="1.5" height="1.6"/>
	<polygon class="st0" points="56.6,17.3 55.5,16.2 53.2,18.5 53.2,9.5 51.7,9.5 51.7,18.5 49.4,16.2 48.3,17.3 52.4,21.4 	"/>
	<rect x="43.2" y="15" class="st0" width="1.5" height="1.6"/>
	<polygon class="st0" points="48,24.2 47,23.2 44.7,25.4 44.7,18.1 43.2,18.1 43.2,25.4 40.9,23.2 39.8,24.2 43.9,28.3 	"/>
</g>
</svg>
