<svg id="icon-bell" xmlns="http://www.w3.org/2000/svg" xmlns:xlink="http://www.w3.org/1999/xlink" width="37.578" height="42.275" viewBox="0 0 37.578 42.275">
  <defs>
    <clipPath id="clip-path">
      <rect id="Rectangle_43" data-name="Rectangle 43" width="37.578" height="42.275" fill="#858585"/>
    </clipPath>
  </defs>
  <g id="Group_49" data-name="Group 49" clip-path="url(#clip-path)">
    <path id="Path_43" data-name="Path 43" d="M4.7,12.918C4.7,5.47,11.454-.074,18.8,0c7.22.074,13.817,4.913,13.817,12.917V24.661c0,.106.024.257.442.685.1.1.238.234.4.387a18.036,18.036,0,0,1,1.362,1.4c1.441,1.706,2.757,4.333,2.757,9.272A1.175,1.175,0,0,1,36.4,37.579H24.542a5.872,5.872,0,0,1-11.506,0H1.174A1.175,1.175,0,0,1,0,36.4c0-4.923,1.241-7.541,2.606-9.247a17.691,17.691,0,0,1,1.293-1.4c.152-.152.282-.283.375-.384.388-.42.423-.579.423-.708ZM15.469,37.579a3.521,3.521,0,0,0,6.64,0ZM18.777,2.35C12.488,2.285,7.045,7.012,7.045,12.918V24.661A3.331,3.331,0,0,1,6,26.962c-.207.224-.4.413-.582.6a11.74,11.74,0,0,0-.978,1.064c-.893,1.117-1.889,2.933-2.064,6.606H35.2c-.185-3.656-1.231-5.465-2.174-6.582a12.1,12.1,0,0,0-1.036-1.067c-.2-.184-.4-.373-.613-.6a3.286,3.286,0,0,1-1.108-2.325V12.918c0-6.408-5.229-10.5-11.493-10.569Z" transform="translate(0 0)" fill="#858585" fill-rule="evenodd"/>
  </g>
</svg>
