<svg width="43" height="43" viewBox="0 0 43 43" fill="none" xmlns="http://www.w3.org/2000/svg">
<path fill-rule="evenodd" clip-rule="evenodd" d="M21.3974 0C9.58078 0 0 9.58078 0 21.3974C0 33.2141 9.58078 42.7949 21.3974 42.7949C33.2141 42.7949 42.7949 33.2141 42.7949 21.3974C42.7949 9.58078 33.2141 0 21.3974 0ZM21.3973 2.67468C31.7199 2.67468 40.1201 11.0748 40.1201 21.3974C40.1201 31.72 31.7199 40.1202 21.3973 40.1202C11.0747 40.1202 2.67457 31.72 2.67457 21.3974C2.67457 11.0748 11.0747 2.67468 21.3973 2.67468ZM31.7587 27.4768L31.8612 27.7888C32.0997 28.5066 31.859 29.5342 31.3241 30.067L29.8621 31.5293C29.6014 31.7901 28.8369 31.9529 28.8124 31.9529C24.1878 31.9931 19.7348 30.1763 16.4631 26.9039C13.1824 23.6204 11.3637 19.151 11.4128 14.5099C11.4128 14.5076 11.5799 13.7654 11.8407 13.5068L13.3027 12.0445C13.8376 11.5072 14.865 11.2642 15.5849 11.505L15.8925 11.6076C16.6101 11.8483 17.3635 12.6419 17.5618 13.373L18.2974 16.0725C18.4957 16.8059 18.2283 17.8491 17.6934 18.3841L16.7172 19.3605C17.6756 22.9093 20.4592 25.6935 24.0073 26.6542L24.9835 25.6778C25.5206 25.1406 26.5636 24.8731 27.2946 25.0715L29.9935 25.8094C30.7246 26.01 31.518 26.759 31.7587 27.4768Z" fill="#55CAEE"/>
</svg>
