109.04.13 16:06 B W:\OceanBankforReal\pressreleases-07\artauction.2007.pdf --> ftp.designchateau.com /design16/designchateau.com/OceanBank2/pressreleases-07 artauction.2007.pdf
109.04.13 16:06 B W:\OceanBankforReal\pressreleases-07\camillus1million.2007.pdf --> ftp.designchateau.com /design16/designchateau.com/OceanBank2/pressreleases-07 camillus1million.2007.pdf
109.04.13 16:06 B W:\OceanBankforReal\pressreleases-07\donornextdoorwward.2007.pdf --> ftp.designchateau.com /design16/designchateau.com/OceanBank2/pressreleases-07 donornextdoorwward.2007.pdf
109.04.13 16:06 B W:\OceanBankforReal\pressreleases-07\fontellapromotion.2007.pdf --> ftp.designchateau.com /design16/designchateau.com/OceanBank2/pressreleases-07 fontellapromotion.2007.pdf
109.04.13 16:06 B W:\OceanBankforReal\pressreleases-07\juliatuttaward.2007.pdf --> ftp.designchateau.com /design16/designchateau.com/OceanBank2/pressreleases-07 juliatuttaward.2007.pdf
109.04.13 16:07 B W:\OceanBankforReal\pressreleases-07\mdc.fccclass. 2007.pdf --> ftp.designchateau.com /design16/designchateau.com/OceanBank2/pressreleases-07 mdc.fccclass. 2007.pdf
109.04.13 16:07 B W:\OceanBankforReal\pressreleases-07\obcem.artauction.2007.pdf --> ftp.designchateau.com /design16/designchateau.com/OceanBank2/pressreleases-07 obcem.artauction.2007.pdf
109.04.13 16:07 B W:\OceanBankforReal\pressreleases-07\OBCEMExhibitRelease.2007.pdf --> ftp.designchateau.com /design16/designchateau.com/OceanBank2/pressreleases-07 OBCEMExhibitRelease.2007.pdf
109.04.13 16:07 B W:\OceanBankforReal\pressreleases-07\pressreleaseconcepcion.macedo.2007.pdf --> ftp.designchateau.com /design16/designchateau.com/OceanBank2/pressreleases-07 pressreleaseconcepcion.macedo.2007.pdf
109.04.13 16:07 B W:\OceanBankforReal\pressreleases-07\unitednegrocollege.2007.pdf --> ftp.designchateau.com /design16/designchateau.com/OceanBank2/pressreleases-07 unitednegrocollege.2007.pdf
109.04.14 11:12 B W:\OceanBankforReal\pressreleases-07\angel fontela.2007.pdf --> ftp.designchateau.com /design16/designchateau.com/OceanBank2/pressreleases-07 angel fontela.2007.pdf
109.04.14 11:12 B W:\OceanBankforReal\pressreleases-07\Camillus house.2007.pdf --> ftp.designchateau.com /design16/designchateau.com/OceanBank2/pressreleases-07 Camillus house.2007.pdf
109.04.14 11:12 B W:\OceanBankforReal\pressreleases-07\el espiritudela comunidad awards.2007.pdf --> ftp.designchateau.com /design16/designchateau.com/OceanBank2/pressreleases-07 el espiritudela comunidad awards.2007.pdf
109.04.14 11:12 B W:\OceanBankforReal\pressreleases-07\home delivery meals program.2007.pdf --> ftp.designchateau.com /design16/designchateau.com/OceanBank2/pressreleases-07 home delivery meals program.2007.pdf
109.04.14 11:12 B W:\OceanBankforReal\pressreleases-07\internship program.2007.pdf --> ftp.designchateau.com /design16/designchateau.com/OceanBank2/pressreleases-07 internship program.2007.pdf
109.04.14 11:12 B W:\OceanBankforReal\pressreleases-07\jose concepcion retirement announcement.2007.pdf --> ftp.designchateau.com /design16/designchateau.com/OceanBank2/pressreleases-07 jose concepcion retirement announcement.2007.pdf
109.04.14 11:12 B W:\OceanBankforReal\pressreleases-07\juliette tuttle award.2007.pdf --> ftp.designchateau.com /design16/designchateau.com/OceanBank2/pressreleases-07 juliette tuttle award.2007.pdf
109.04.14 11:12 B W:\OceanBankforReal\pressreleases-07\legacy award.2007.pdf --> ftp.designchateau.com /design16/designchateau.com/OceanBank2/pressreleases-07 legacy award.2007.pdf
109.04.14 11:12 B W:\OceanBankforReal\pressreleases-07\mercy foundation.2007.pdf --> ftp.designchateau.com /design16/designchateau.com/OceanBank2/pressreleases-07 mercy foundation.2007.pdf
109.04.14 11:12 B W:\OceanBankforReal\pressreleases-07\miami dade college school of business ob scholarships.2007.pdf --> ftp.designchateau.com /design16/designchateau.com/OceanBank2/pressreleases-07 miami dade college school of business ob scholarships.2007.pdf
109.04.14 11:12 B W:\OceanBankforReal\pressreleases-07\misys st.2007.pdf --> ftp.designchateau.com /design16/designchateau.com/OceanBank2/pressreleases-07 misys st.2007.pdf
109.04.14 11:12 B W:\OceanBankforReal\pressreleases-07\obcem art auction.2007.pdf --> ftp.designchateau.com /design16/designchateau.com/OceanBank2/pressreleases-07 obcem art auction.2007.pdf
109.04.14 11:12 B W:\OceanBankforReal\pressreleases-07\obcem exhibit.2007.pdf --> ftp.designchateau.com /design16/designchateau.com/OceanBank2/pressreleases-07 obcem exhibit.2007.pdf
109.04.14 11:12 B W:\OceanBankforReal\pressreleases-07\ocean bank awards funds miami dadec ollege.2007.pdf --> ftp.designchateau.com /design16/designchateau.com/OceanBank2/pressreleases-07 ocean bank awards funds miami dadec ollege.2007.pdf
109.04.14 11:12 B W:\OceanBankforReal\pressreleases-07\ocean bank offers student scholarships.2007.pdf --> ftp.designchateau.com /design16/designchateau.com/OceanBank2/pressreleases-07 ocean bank offers student scholarships.2007.pdf
109.04.14 11:12 B W:\OceanBankforReal\pressreleases-07\ocean bank receives the commissioner.2007.pdf --> ftp.designchateau.com /design16/designchateau.com/OceanBank2/pressreleases-07 ocean bank receives the commissioner.2007.pdf
109.04.14 11:12 B W:\OceanBankforReal\pressreleases-07\oceanbanksigns c and d.2007.pdf --> ftp.designchateau.com /design16/designchateau.com/OceanBank2/pressreleases-07 oceanbanksigns c and d.2007.pdf
109.04.14 11:12 B W:\OceanBankforReal\pressreleases-07\outstanding minority business of the year award.2007.pdf --> ftp.designchateau.com /design16/designchateau.com/OceanBank2/pressreleases-07 outstanding minority business of the year award.2007.pdf
109.04.14 11:12 B W:\OceanBankforReal\pressreleases-07\the education fund.2007.pdf --> ftp.designchateau.com /design16/designchateau.com/OceanBank2/pressreleases-07 the education fund.2007.pdf
109.04.14 11:12 B W:\OceanBankforReal\pressreleases-07\united negro fund.2007.pdf --> ftp.designchateau.com /design16/designchateau.com/OceanBank2/pressreleases-07 united negro fund.2007.pdf
109.04.14 11:12 B W:\OceanBankforReal\pressreleases-07\WS_FTP.LOG --> ftp.designchateau.com /design16/designchateau.com/OceanBank2/pressreleases-07 WS_FTP.LOG
109.04.15 10:00 B W:\OceanBankforReal\pressreleases-07\angel fontela.2007.pdf --> ftp.designchateau.com /design16/designchateau.com/OceanBank0/pressreleases-07 angel fontela.2007.pdf
109.04.15 10:00 B W:\OceanBankforReal\pressreleases-07\artauction.2007.pdf --> ftp.designchateau.com /design16/designchateau.com/OceanBank0/pressreleases-07 artauction.2007.pdf
109.04.15 10:00 B W:\OceanBankforReal\pressreleases-07\Camillus house.2007.pdf --> ftp.designchateau.com /design16/designchateau.com/OceanBank0/pressreleases-07 Camillus house.2007.pdf
109.04.15 10:00 B W:\OceanBankforReal\pressreleases-07\camillus1million.2007.pdf --> ftp.designchateau.com /design16/designchateau.com/OceanBank0/pressreleases-07 camillus1million.2007.pdf
109.04.15 10:00 B W:\OceanBankforReal\pressreleases-07\donornextdoorwward.2007.pdf --> ftp.designchateau.com /design16/designchateau.com/OceanBank0/pressreleases-07 donornextdoorwward.2007.pdf
109.04.15 10:00 B W:\OceanBankforReal\pressreleases-07\el espiritudela comunidad awards.2007.pdf --> ftp.designchateau.com /design16/designchateau.com/OceanBank0/pressreleases-07 el espiritudela comunidad awards.2007.pdf
109.04.15 10:00 B W:\OceanBankforReal\pressreleases-07\fontellapromotion.2007.pdf --> ftp.designchateau.com /design16/designchateau.com/OceanBank0/pressreleases-07 fontellapromotion.2007.pdf
109.04.15 10:00 B W:\OceanBankforReal\pressreleases-07\home delivery meals program.2007.pdf --> ftp.designchateau.com /design16/designchateau.com/OceanBank0/pressreleases-07 home delivery meals program.2007.pdf
109.04.15 10:00 B W:\OceanBankforReal\pressreleases-07\internship program.2007.pdf --> ftp.designchateau.com /design16/designchateau.com/OceanBank0/pressreleases-07 internship program.2007.pdf
109.04.15 10:00 B W:\OceanBankforReal\pressreleases-07\jose concepcion retirement announcement.2007.pdf --> ftp.designchateau.com /design16/designchateau.com/OceanBank0/pressreleases-07 jose concepcion retirement announcement.2007.pdf
109.04.15 10:00 B W:\OceanBankforReal\pressreleases-07\juliatuttaward.2007.pdf --> ftp.designchateau.com /design16/designchateau.com/OceanBank0/pressreleases-07 juliatuttaward.2007.pdf
109.04.15 10:00 B W:\OceanBankforReal\pressreleases-07\juliette tuttle award.2007.pdf --> ftp.designchateau.com /design16/designchateau.com/OceanBank0/pressreleases-07 juliette tuttle award.2007.pdf
109.04.15 10:00 B W:\OceanBankforReal\pressreleases-07\legacy award.2007.pdf --> ftp.designchateau.com /design16/designchateau.com/OceanBank0/pressreleases-07 legacy award.2007.pdf
109.04.15 10:01 B W:\OceanBankforReal\pressreleases-07\mdc.fccclass. 2007.pdf --> ftp.designchateau.com /design16/designchateau.com/OceanBank0/pressreleases-07 mdc.fccclass. 2007.pdf
109.04.15 10:01 B W:\OceanBankforReal\pressreleases-07\mercy foundation.2007.pdf --> ftp.designchateau.com /design16/designchateau.com/OceanBank0/pressreleases-07 mercy foundation.2007.pdf
109.04.15 10:01 B W:\OceanBankforReal\pressreleases-07\miami dade college school of business ob scholarships.2007.pdf --> ftp.designchateau.com /design16/designchateau.com/OceanBank0/pressreleases-07 miami dade college school of business ob scholarships.2007.pdf
109.04.15 10:01 B W:\OceanBankforReal\pressreleases-07\misys st.2007.pdf --> ftp.designchateau.com /design16/designchateau.com/OceanBank0/pressreleases-07 misys st.2007.pdf
109.04.15 10:01 B W:\OceanBankforReal\pressreleases-07\obcem art auction.2007.pdf --> ftp.designchateau.com /design16/designchateau.com/OceanBank0/pressreleases-07 obcem art auction.2007.pdf
109.04.15 10:01 B W:\OceanBankforReal\pressreleases-07\obcem exhibit.2007.pdf --> ftp.designchateau.com /design16/designchateau.com/OceanBank0/pressreleases-07 obcem exhibit.2007.pdf
109.04.15 10:01 B W:\OceanBankforReal\pressreleases-07\obcem.artauction.2007.pdf --> ftp.designchateau.com /design16/designchateau.com/OceanBank0/pressreleases-07 obcem.artauction.2007.pdf
109.04.15 10:01 B W:\OceanBankforReal\pressreleases-07\OBCEMExhibitRelease.2007.pdf --> ftp.designchateau.com /design16/designchateau.com/OceanBank0/pressreleases-07 OBCEMExhibitRelease.2007.pdf
109.04.15 10:01 B W:\OceanBankforReal\pressreleases-07\ocean bank awards funds miami dadec ollege.2007.pdf --> ftp.designchateau.com /design16/designchateau.com/OceanBank0/pressreleases-07 ocean bank awards funds miami dadec ollege.2007.pdf
109.04.15 10:01 B W:\OceanBankforReal\pressreleases-07\ocean bank offers student scholarships.2007.pdf --> ftp.designchateau.com /design16/designchateau.com/OceanBank0/pressreleases-07 ocean bank offers student scholarships.2007.pdf
109.04.15 10:01 B W:\OceanBankforReal\pressreleases-07\ocean bank receives the commissioner.2007.pdf --> ftp.designchateau.com /design16/designchateau.com/OceanBank0/pressreleases-07 ocean bank receives the commissioner.2007.pdf
109.04.15 10:01 B W:\OceanBankforReal\pressreleases-07\oceanbanksigns c and d.2007.pdf --> ftp.designchateau.com /design16/designchateau.com/OceanBank0/pressreleases-07 oceanbanksigns c and d.2007.pdf
109.04.15 10:01 B W:\OceanBankforReal\pressreleases-07\outstanding minority business of the year award.2007.pdf --> ftp.designchateau.com /design16/designchateau.com/OceanBank0/pressreleases-07 outstanding minority business of the year award.2007.pdf
109.04.15 10:01 B W:\OceanBankforReal\pressreleases-07\pressreleaseconcepcion.macedo.2007.pdf --> ftp.designchateau.com /design16/designchateau.com/OceanBank0/pressreleases-07 pressreleaseconcepcion.macedo.2007.pdf
109.04.15 10:01 B W:\OceanBankforReal\pressreleases-07\the education fund.2007.pdf --> ftp.designchateau.com /design16/designchateau.com/OceanBank0/pressreleases-07 the education fund.2007.pdf
109.04.15 10:01 B W:\OceanBankforReal\pressreleases-07\united negro fund.2007.pdf --> ftp.designchateau.com /design16/designchateau.com/OceanBank0/pressreleases-07 united negro fund.2007.pdf
109.04.15 10:01 B W:\OceanBankforReal\pressreleases-07\unitednegrocollege.2007.pdf --> ftp.designchateau.com /design16/designchateau.com/OceanBank0/pressreleases-07 unitednegrocollege.2007.pdf
109.04.15 10:01 B W:\OceanBankforReal\pressreleases-07\WS_FTP.LOG --> ftp.designchateau.com /design16/designchateau.com/OceanBank0/pressreleases-07 WS_FTP.LOG
