<?xml version="1.0" encoding="utf-8"?>
<!-- Generator: Adobe Illustrator 22.0.1, SVG Export Plug-In . SVG Version: 6.00 Build 0)  -->
<svg version="1.1" id="Capa_1" xmlns="http://www.w3.org/2000/svg" xmlns:xlink="http://www.w3.org/1999/xlink" x="0px" y="0px"
	 viewBox="0 0 80 80" style="enable-background:new 0 0 80 80;" xml:space="preserve">
<style type="text/css">
	.st0{fill:#009BDB;}
	.st1{fill:#858585;}
</style>
<g>
	<path class="st0" d="M72.1,41.5C72.1,24.1,57.9,10,40.5,10C23.1,10,9,24.1,9,41.5S23.1,73,40.5,73C57.9,73,72.1,58.9,72.1,41.5z
		 M40.5,70.9c-16.2,0-29.3-13.2-29.3-29.3s13.2-29.3,29.3-29.3c16.2,0,29.3,13.2,29.3,29.3S56.7,70.9,40.5,70.9z"/>
	<path class="st0" d="M52.8,31.2c-0.2-0.8-0.9-1.3-1.6-1.3h-4.2c-1.3-3.5-3.6-5.7-6.4-5.7c-2.7,0-5.1,2.2-6.4,5.7h-4.2
		c-0.8,0-1.5,0.5-1.6,1.3l-6.4,25.5c-0.1,0.5,0,1,0.3,1.4c0.3,0.4,0.8,0.7,1.3,0.7h34c0.5,0,1-0.2,1.3-0.6c0.3-0.4,0.4-0.9,0.3-1.4
		L52.8,31.2z M46,37.6c0-0.5,0.4-0.8,0.8-0.8c0.5,0,0.8,0.4,0.8,0.8s-0.4,0.8-0.8,0.8C46.4,38.4,46,38.1,46,37.6z M36.5,29.9
		c1-2.1,2.4-3.5,4-3.5c1.6,0,3,1.4,4,3.5H36.5z M33.6,37.6c0-0.5,0.4-0.8,0.8-0.8c0.5,0,0.8,0.4,0.8,0.8s-0.4,0.8-0.8,0.8
		C34,38.4,33.6,38.1,33.6,37.6z M33.3,34.8c-1.1,0.5-1.8,1.5-1.8,2.8c0,1.7,1.4,3,3,3s3-1.4,3-3c0-1.3-0.9-2.5-2.1-2.9
		c0-0.1,0-0.1,0-0.2c0.1-0.9,0.2-1.7,0.4-2.5h9.5c0.2,0.8,0.3,1.6,0.4,2.4c0,0.1,0,0.2,0.1,0.2c-1.1,0.4-1.9,1.5-1.9,2.8
		c0,1.7,1.4,3,3,3s3-1.4,3-3c0-1.3-0.9-2.4-2-2.8c0-0.1,0.1-0.2,0-0.4c-0.1-0.8-0.2-1.5-0.3-2.3h3.2l6.1,24.5H24.2l6.1-24.5h3.2
		c-0.2,0.7-0.3,1.5-0.3,2.3C33.2,34.6,33.2,34.7,33.3,34.8z"/>
</g>
</svg>
