<?xml version="1.0" encoding="utf-8"?>
<!-- Generator: Adobe Illustrator 22.0.1, SVG Export Plug-In . SVG Version: 6.00 Build 0)  -->
<svg version="1.1" id="Capa_1" xmlns="http://www.w3.org/2000/svg" xmlns:xlink="http://www.w3.org/1999/xlink" x="0px" y="0px"
	 viewBox="0 0 80 80" style="enable-background:new 0 0 80 80;" xml:space="preserve">
<style type="text/css">
	.st0{fill:#009BDB;}
	.st1{fill:#858585;}
</style>
<g>
	
		<rect x="54.7" y="57.9" transform="matrix(0.7071 -0.7071 0.7071 0.7071 -29.6541 58.5023)" class="st1" width="2.2" height="14.3"/>
	<path class="st1" d="M28.8,48.5c0.8-6.4,6.2-11.2,12.7-11.2c1.7,0,3.3,0.3,4.8,0.9c4.9,2,8,6.6,8,11.9c0,3.4-1.3,6.6-3.7,9
		c-2.4,2.4-5.6,3.8-9,3.8c-7.1,0-12.8-5.7-12.8-12.8C28.7,49.6,28.7,49,28.8,48.5 M50.1,29.6c0,2.8,2.3,5.1,5.1,5.1h10.7v17.2
		c0,0.6-0.5,1.1-1.1,1.1h-8.6c0.2-1,0.3-1.9,0.3-2.9c0-6.1-3.7-11.6-9.4-13.9c-1.8-0.7-3.6-1.1-5.6-1.1c-7.5,0-13.9,5.6-14.8,13.1
		c-0.1,0.6-0.1,1.2-0.1,1.9c0,0.9,0.1,1.9,0.3,2.9h-8.6c-0.6,0-1.1-0.5-1.1-1.1V20c0-0.6,0.5-1.1,1.1-1.1h46.5
		c0.6,0,1.1,0.5,1.1,1.1v4.5H55.2C52.4,24.5,50.1,26.8,50.1,29.6 M52.3,29.6c0-1.6,1.3-2.9,2.9-2.9h10.7v5.9H55.2
		C53.6,32.6,52.3,31.2,52.3,29.6 M21,15.3h40.6v1.5H21V15.3z M64.8,16.8h-1v-1.8c0-1-0.8-1.8-1.8-1.8H20.7c-1,0-1.8,0.8-1.8,1.8v1.8
		h-0.6c-1.8,0-3.2,1.5-3.2,3.2v31.9c0,1.8,1.5,3.2,3.2,3.2h9.2c2.1,5.9,7.8,9.9,14.1,9.9c6.3,0,11.9-4,14.1-9.9h9.2
		c1.8,0,3.2-1.5,3.2-3.2V20C68,18.2,66.5,16.8,64.8,16.8"/>
	<path class="st1" d="M55.8,29.6c0,0.3-0.3,0.6-0.6,0.6c-0.3,0-0.6-0.3-0.6-0.6c0-0.3,0.3-0.6,0.6-0.6C55.5,29,55.8,29.3,55.8,29.6
		 M58,29.6c0-1.5-1.2-2.8-2.8-2.8c-1.5,0-2.8,1.2-2.8,2.8c0,1.5,1.2,2.8,2.8,2.8C56.7,32.4,58,31.2,58,29.6"/>
</g>
</svg>
