<?xml version="1.0" encoding="UTF-8"?>
<svg width="330px" height="71px" viewBox="0 0 330 71" version="1.1" xmlns="http://www.w3.org/2000/svg" xmlns:xlink="http://www.w3.org/1999/xlink">
    <!-- Generator: Sketch 52.6 (67491) - http://www.bohemiancoding.com/sketch -->
    <title>apple-watch</title>
    <desc>Created with Sketch.</desc>
    <g id="Page-1" stroke="none" stroke-width="1" fill="none" fill-rule="evenodd">
        <g id="apple-watch" fill="#000000">
            <path d="M47.8613151,37.7168444 C47.7793036,28.7362043 55.132997,24.4192272 55.4646878,24.2090027 C51.2930387,18.0110702 44.8451162,17.3232306 42.5743103,17.1554199 C36.7806569,16.7220625 31.8636148,20.4194308 29.1226099,20.4194308 C26.3415105,20.4194308 22.0477555,17.2476236 17.4988537,17.3269188 C11.5284201,17.4209666 6.02271808,20.8380356 2.94455498,26.23564 C-3.25915562,37.0990796 1.35900027,53.1960011 7.40233292,62.0106745 C10.3602126,66.3239635 13.8812375,71.1775661 18.5139732,70.9950028 C22.9735736,70.8216598 24.6575421,68.0850541 30.0447831,68.0850541 C35.4283792,68.0850541 36.9519697,70.9950028 41.6612494,70.9120195 C46.4580081,70.8290361 49.4997216,66.5212794 52.4320866,62.1803293 C55.8291831,57.184733 57.2270227,52.3440389 57.3053892,52.0784923 C57.2015081,52.0397667 47.9579064,48.4585751 47.8613151,37.7168444 Z M38.998611,11.3281462 C41.460777,8.33337015 43.1155858,4.15101045 42.6599667,0 C39.120717,0.138305546 34.8378968,2.37701131 32.2973643,5.37363147 C30.0210909,8.03094203 28.0236565,12.2815325 28.5649321,16.360624 C32.5124165,16.6667403 36.54009,14.3376749 38.998611,11.3281462 Z" id="Fill-8"></path>
            <polyline id="Fill-9" points="184.760479 26.9918855 200.146188 26.9918855 200.146188 70 210.833399 70 210.833399 26.9918855 226.257485 26.9918855 226.257485 18 184.760479 18 184.760479 26.9918855"></polyline>
            <polyline id="Fill-10" points="319.274032 38.8755493 298.200875 38.8755493 298.200875 18 287.51497 18 287.51497 70 298.200875 70 298.200875 47.8253721 319.274032 47.8253721 319.274032 70 330 70 330 18.0018427 319.274032 18.0018427 319.274032 38.8755493"></polyline>
            <path d="M155.869835,48.8948655 L161.702845,28.2485383 L161.81297,28.2485383 L167.552104,48.8948655 L155.869835,48.8948655 Z M155.784984,18 L139.311377,70 L149.905035,70 L153.609565,56.8972751 L169.772656,56.8972751 L173.415806,70 L184.760479,70 L168.3302,18 L155.784984,18 Z" id="Fill-11"></path>
            <path d="M256.070231,16 C242.348906,16 234.161677,25.089007 234.161677,40.3411079 L234.161677,46.7833991 C234.161677,62.184531 242.315833,71 256.033484,71 C269.786044,71 276.646707,62.422226 276.646707,52.818213 L276.646707,51.8466815 L266.32264,51.8466815 C266.32264,57.3438518 263.654809,61.6355685 256.224568,61.6355685 C248.755743,61.6355685 245.095743,56.9118505 245.095743,46.7758532 L245.095743,40.333562 C245.095743,30.3107529 248.79249,25.2776539 256.145562,25.2776539 C263.042972,25.2776539 266.318966,29.9542103 266.318966,35.2250043 L276.643032,35.2250043 L276.643032,34.6835877 C276.646707,24.3061224 268.95005,16 256.070231,16" id="Fill-12"></path>
            <polyline id="Fill-13" points="117.185027 55.144963 117.030435 55.144963 107.721802 18 96.7660296 18 87.4960439 55.144963 87.3396118 55.144963 78.7137586 18 67.1856287 18 81.6878099 70 92.5662862 70 102.145455 34.4580986 102.338695 34.4580986 111.917864 70 122.869956 70 137.335329 18 125.81088 18 117.185027 55.144963"></polyline>
        </g>
    </g>
</svg>