<svg width="81" height="55" viewBox="0 0 81 55" fill="none" xmlns="http://www.w3.org/2000/svg">
  <g clip-path="url(#clip0)">
    <path d="M10.4098 34.0164V35.4918H4.7541V34.0164H10.4098ZM16.8852 34.0164V35.4918H11.2295V34.0164H16.8852ZM23.3607 34.0164V35.4918H17.7049V34.0164H23.3607ZM29.918 34.0164V35.4918H24.2623V34.0164H29.918ZM6.22951 23.9344V27.541H11.3934V23.9344H6.22951V23.9344ZM12.1311 29.0164H4.7541V22.459H12.8689V29.0164H12.1311ZM37.1311 50.4918H33.6066C33.2787 50.4918 32.9508 50.8197 32.9508 51.1475C32.9508 51.4754 33.2787 51.8033 33.6066 51.8033H37.0492C37.377 51.8033 37.7049 51.4754 37.7049 51.1475C37.7869 50.7377 37.459 50.4918 37.1311 50.4918ZM64.5082 53.2787C57.7049 46.3934 54.2623 37.377 54.2623 28.3607C54.2623 19.3443 57.7049 10.3279 64.5082 3.44262C64.6721 3.36066 64.7541 3.19672 64.918 3.19672C65.082 3.11475 65.2459 3.11475 65.4098 3.11475C65.5738 3.11475 65.7377 3.11475 65.9016 3.19672C66.0656 3.27869 66.2295 3.36066 66.3115 3.44262C66.3934 3.52459 66.5574 3.68852 66.5574 3.85246C66.6393 4.01639 66.6393 4.18033 66.6393 4.34426C66.6393 4.5082 66.6393 4.67213 66.5574 4.83607C66.4754 5 66.3934 5.16393 66.3115 5.2459C60 11.6393 56.8852 20 56.8852 28.3607C56.8852 36.7213 60 45.082 66.3115 51.3934C66.5574 51.6393 66.7213 51.9672 66.7213 52.2951C66.7213 52.6229 66.5574 52.9508 66.3115 53.1967C66.0656 53.4426 65.7377 53.6066 65.4098 53.6066C65.082 53.6066 64.7541 53.5246 64.5082 53.2787ZM71.4754 46.2295C66.5574 41.3115 64.1803 34.8361 64.1803 28.3607C64.1803 21.8852 66.6393 15.4098 71.4754 10.4918C71.6393 10.3279 71.7213 10.2459 71.8852 10.2459C72.0492 10.1639 72.2131 10.1639 72.377 10.1639C72.541 10.1639 72.7049 10.1639 72.8689 10.2459C73.0328 10.3279 73.1967 10.4098 73.2787 10.4918C73.3607 10.5738 73.5246 10.7377 73.5246 10.9016C73.6066 11.0656 73.6066 11.2295 73.6066 11.3934C73.6066 11.5574 73.6066 11.7213 73.5246 11.8852C73.4426 12.0492 73.3607 12.2131 73.2787 12.2951C71.1475 14.4262 69.5082 16.9672 68.4426 19.6721C67.2951 22.377 66.7213 25.3279 66.7213 28.3607C66.7213 31.3934 67.2951 34.3443 68.4426 37.0492C69.5902 39.7541 71.2295 42.2951 73.2787 44.4262C73.5246 44.6721 73.6885 45 73.6885 45.3279C73.6885 45.6557 73.5246 45.9836 73.2787 46.2295C73.0328 46.4754 72.7049 46.6393 72.377 46.6393C72.0492 46.6393 71.7213 46.4754 71.4754 46.2295ZM78.4426 39.1803C76.9672 37.7049 75.9016 36.0656 75.1639 34.1803C74.4262 32.377 74.0164 30.3279 74.0164 28.3607C74.0164 26.3115 74.4262 24.3443 75.1639 22.459C75.9016 20.6557 77.0492 18.9344 78.4426 17.541C78.6066 17.459 78.6885 17.2951 78.8525 17.2951C79.0164 17.2131 79.1803 17.2131 79.3443 17.2131C79.5082 17.2131 79.6721 17.2131 79.8361 17.2951C80 17.377 80.1639 17.459 80.2459 17.541C80.3279 17.623 80.4918 17.7869 80.4918 17.9508C80.5738 18.1148 80.5738 18.2787 80.5738 18.4426C80.5738 18.6066 80.5738 18.7705 80.4918 18.9344C80.4098 19.0984 80.3279 19.2623 80.2459 19.3443C79.0164 20.5738 78.1148 21.9672 77.541 23.4426C76.8852 25 76.5574 26.6393 76.5574 28.2787C76.5574 30 76.8852 31.6393 77.541 33.1148C78.1967 34.6721 79.0984 36.0656 80.2459 37.2131C80.4918 37.459 80.6557 37.7869 80.6557 38.1148C80.6557 38.4426 80.4918 38.7705 80.2459 39.0164C80 39.2623 79.6721 39.4262 79.3443 39.4262C79.0164 39.5902 78.6885 39.4262 78.4426 39.1803ZM34.918 38.0328V18.8525C34.918 18.6066 34.8361 18.4426 34.6721 18.2787C34.5082 18.1148 34.3443 18.0328 34.0984 18.0328H2.78689C2.54098 18.0328 2.37705 18.1148 2.21311 18.2787C2.04918 18.4426 1.96721 18.6066 1.96721 18.8525V38.0328C1.96721 38.2787 2.04918 38.4426 2.21311 38.6066C2.37705 38.7705 2.54098 38.8525 2.78689 38.8525H34.0984C34.3443 38.8525 34.5082 38.7705 34.6721 38.6066C34.7541 38.4426 34.918 38.1967 34.918 38.0328ZM36.8852 32.6229V38.0328C36.8852 38.7705 36.5574 39.5082 36.0656 40C35.5738 40.4918 34.8361 40.8197 34.0984 40.8197H2.78689C2.04918 40.8197 1.31148 40.4918 0.819672 40C0.327869 39.5082 0 38.7705 0 38.0328V18.8525C0 18.1148 0.327869 17.377 0.819672 16.8852C1.31148 16.3934 2.04918 16.0656 2.78689 16.0656H34.0984C34.8361 16.0656 35.5738 16.3934 36.0656 16.8852C36.5574 17.377 36.8852 18.1148 36.8852 18.8525V32.6229ZM22.459 4.59016H48.1967V4.01639C48.1967 3.44262 47.9508 3.03279 47.6229 2.62295C47.2951 2.29508 46.8033 2.04918 46.2295 2.04918H24.4262C23.9344 2.04918 23.4426 2.29508 23.0328 2.62295C22.7049 2.95082 22.459 3.44262 22.459 4.01639V4.59016ZM47.7049 52.2951C48.0328 51.9672 48.2787 51.4754 48.2787 50.9016V49.2623H22.459V50.9016C22.459 51.4754 22.7049 51.8852 23.0328 52.2951C23.3607 52.6229 23.8525 52.8689 24.4262 52.8689H46.3115C46.8852 52.8689 47.377 52.7049 47.7049 52.2951ZM49.1803 1.14754C49.918 1.88525 50.3279 2.86885 50.3279 4.01639V50.9016C50.3279 52.0492 49.918 53.0328 49.1803 53.7705C48.4426 54.5082 47.459 54.918 46.3934 54.918H24.4262C23.3607 54.918 22.2951 54.4262 21.6393 53.7705C20.9016 53.0328 20.4918 52.0492 20.4918 50.9016V42.377H22.541V47.2131H48.2787V6.63934H22.459V14.5082L20.4098 14.5902V4.01639C20.4098 2.86885 20.8197 1.88525 21.5574 1.14754C22.2951 0.491803 23.2787 0 24.4262 0H46.3115C47.459 0 48.4426 0.491803 49.1803 1.14754Z" fill="#009ADA"/>
  </g>
  <defs>
    <clipPath id="clip0">
      <rect width="80.6557" height="55" fill="white"/>
    </clipPath>
  </defs>
</svg>
