<svg width="40" height="40" viewBox="0 0 40 40" fill="none" xmlns="http://www.w3.org/2000/svg">
  <g opacity="0.5">
    <path d="M20 40C31.0457 40 40 31.0457 40 20C40 8.9543 31.0457 0 20 0C8.9543 0 0 8.9543 0 20C0 31.0457 8.9543 40 20 40Z" fill="#5C636A"/>
    <path d="M25.0268 20.7842H21.4617V33.868H16.0428V20.7842H13.476V16.1853H16.0428V13.2263C16.0428 11.0872 17.041 7.77173 21.4973 7.77173H25.4902V12.2281H22.5669C22.1034 12.2281 21.426 12.4776 21.426 13.4758V16.1853H25.4546L25.0268 20.7842Z" fill="white"/>
  </g>
</svg>
