<svg width="60" height="55" viewBox="0 0 60 55" fill="none" xmlns="http://www.w3.org/2000/svg">
<g clip-path="url(#clip0)">
<path d="M47 29V20C47 13.1 42.4 8.6 38.5 6.8C37.4 6.3 36.2 5.9 35 5.6V5C35 2.2 32.8 0 30 0C27.2 0 25 2.2 25 5V5.7C23.9 6 22.9 6.4 21.9 6.8C17.5 8.8 13 13.7 13 20V29C13 35.4 10.7 40.9 6.30002 45.3C6.00002 45.6 5.90002 46 6.10002 46.3C6.30002 46.6 6.50002 46.9 6.90002 47L16.4 48.6C18.2 48.9 19.8 49.2 21.3 49.4C23 52.8 26.5 55 30.2 55C33.9 55 37.4 52.8 39.1 49.4C40.6 49.2 42.3 48.9 44 48.6L53.5 47C53.9 46.9 54.2 46.7 54.3 46.3C54.4 45.9 54.3 45.6 54.1 45.3C49.4 40.7 47 35.2 47 29ZM27 5C27 3.3 28.3 2 30 2C31.7 2 33 3.3 33 5V5.2C31 4.9 29 4.9 27 5.2V5ZM30.2 53C27.7 53 25.3 51.7 23.8 49.7C26 49.9 28.1 50 30.2 50C32.3 50 34.4 49.9 36.6 49.7C35.1 51.7 32.7 53 30.2 53ZM43.7 46.7C41.8 47 40 47.3 38.4 47.5C37.7 47.6 37 47.7 36.3 47.7C35.7 47.8 35 47.8 34.4 47.9C34.3 47.9 34.2 47.9 34.1 47.9C33.6 47.9 33 48 32.5 48C32.4 48 32.3 48 32.2 48C31 48 29.7 48 28.5 48C28.4 48 28.3 48 28.2 48C27.7 48 27.2 48 26.6 47.9C26.5 47.9 26.4 47.9 26.2 47.9C25.6 47.9 25 47.8 24.4 47.7C24.4 47.7 24.4 47.7 24.3 47.7C23.6 47.6 22.9 47.5 22.2 47.5C20.5 47.3 18.8 47 16.8 46.7L9.00002 45.3C13 40.7 15 35.3 15 29V20C15 14.6 18.9 10.4 22.7 8.6C23.8 8.1 25 7.7 26.2 7.4C28.7 6.8 31.3 6.8 33.8 7.3C35.1 7.6 36.4 8 37.6 8.5C41.3 10.2 45 14.4 45 19.9V28.9C45 34.9 47.2 40.5 51.3 45.2L43.7 46.7Z" fill="#39A7E3"/>
<path d="M36.4 11.3C32.5 9.49995 27.8 9.49995 23.9 11.3C21.7 12.3 18 15.3 18 20C18 20.6 18.4 21 19 21C19.5 21 20 20.6 20 20C20 16.3 23 14 24.8 13.1C28.1 11.6 32.2 11.6 35.6 13.1C36.1 13.3 36.7 13.1 36.9 12.6C37.1 12.2 36.9 11.6 36.4 11.3Z" fill="#39A7E3"/>
<path d="M4.8 20.3001C4.4 19.9001 3.8 19.9001 3.4 20.3001C1.2 22.5001 0 25.4001 0 28.5001C0 31.6001 1.2 34.5001 3.4 36.7001C3.6 36.9001 3.8 37.0001 4.1 37.0001C4.4 37.0001 4.6 36.9001 4.8 36.7001C5.2 36.3001 5.2 35.7001 4.8 35.3001C3 33.5001 2 31.0001 2 28.5001C2 26.0001 3 23.5001 4.8 21.7001C5.2 21.3001 5.2 20.7001 4.8 20.3001Z" fill="#39A7E3"/>
<path d="M8.3 34.7001C8.6 34.7001 8.8 34.6001 9 34.4001C9.4 34.0001 9.4 33.4001 9 33.0001C6.4 30.4001 6.4 26.3001 9 23.7001C9.4 23.3001 9.4 22.7001 9 22.3001C8.6 21.9001 8 21.9001 7.6 22.3001C4.3 25.6001 4.3 31.1001 7.6 34.4001C7.8 34.6001 8 34.7001 8.3 34.7001Z" fill="#39A7E3"/>
<path d="M56.6 20.3001C56.2 19.9001 55.6 19.9001 55.2 20.3001C54.8 20.7001 54.8 21.3001 55.2 21.7001C57 23.5001 58 25.9001 58 28.5001C58 31.1001 57 33.5001 55.2 35.3001C54.8 35.7001 54.8 36.3001 55.2 36.7001C55.4 36.9001 55.7 37.0001 55.9 37.0001C56.1 37.0001 56.4 36.9001 56.6 36.7001C58.8 34.5001 60 31.6001 60 28.5001C60 25.4001 58.8 22.5001 56.6 20.3001Z" fill="#39A7E3"/>
<path d="M51 22.3001C50.6 22.7001 50.6 23.3001 51 23.7001C53.6 26.3001 53.6 30.4001 51 33.0001C50.6 33.4001 50.6 34.0001 51 34.4001C51.2 34.6001 51.5 34.7001 51.7 34.7001C51.9 34.7001 52.2 34.6001 52.4 34.4001C55.7 31.1001 55.7 25.6001 52.4 22.3001C52 21.9001 51.4 21.9001 51 22.3001Z" fill="#39A7E3"/>
</g>
<defs>
<clipPath id="clip0">
<rect width="60" height="55" fill="white"/>
</clipPath>
</defs>
</svg>