<svg width="43" height="55" viewBox="0 0 43 55" fill="none" xmlns="http://www.w3.org/2000/svg">
<g clip-path="url(#clip0)">
<path d="M35.5788 54.0209C40.0976 46.0157 42.4428 37.089 42.5 27.5288V27.2408C42.4428 26.1466 42.1568 21.7696 41.928 19.4084C41.07 13.1309 38.9536 6.911 35.636 0.979058C35.2927 0.34555 34.7779 0 34.2059 0C33.9199 0 33.6339 0.0575916 33.3479 0.230366C32.5471 0.691099 32.3183 1.67016 32.8331 2.59162C37.4664 10.9424 39.64 19.9843 39.2968 29.4293C39.1252 34.2094 38.2672 38.9895 36.7228 43.6545C35.636 46.7644 34.3775 49.644 32.7759 52.466C32.5471 52.9267 32.4899 53.445 32.6043 53.9058C32.7187 54.3089 33.0619 54.6544 33.4623 54.8272C34.2631 55.2304 35.1211 54.8848 35.5788 54.0209Z" fill="#39A7E3"/>
<path d="M28.3715 15.2618C27.3991 12.1518 26.1407 9.32983 24.5962 6.68061C24.253 6.1047 23.8526 5.87433 23.1662 5.87433C23.109 5.87433 23.0518 5.87433 22.9946 5.87433C22.3654 5.93192 21.9078 6.21988 21.679 6.79579C21.393 7.37171 21.4502 7.89004 21.7934 8.52354C27.1703 18.1413 28.2571 28.3927 25.1111 38.9895C24.3674 41.5811 23.2234 44.1728 21.679 46.8796C21.393 47.3403 21.393 47.8586 21.5646 48.3194C21.7934 48.7801 22.1938 49.1256 22.7086 49.2408C23.4522 49.4136 24.0814 49.068 24.539 48.3769C28.1999 41.9267 30.0303 35.0733 30.0875 27.5864C30.0875 27.5288 30.0875 27.4712 30.0875 27.4712C30.0875 27.2408 30.0875 26.8953 30.1447 26.5497C30.1447 22.6911 29.5155 18.89 28.3715 15.2618Z" fill="#39A7E3"/>
<path d="M11.3257 43.3089C11.7261 43.5392 12.1265 43.6544 12.5269 43.5392C12.9845 43.4241 13.3849 43.1361 13.6138 42.6754C16.3594 38.0105 17.7322 33.1152 17.7894 27.5864C17.7322 24.7068 17.389 22.0576 16.7026 19.6387C15.959 16.9895 14.9294 14.6282 13.5566 12.4398C13.3277 12.0366 12.8701 11.6335 12.1837 11.6335C12.0693 11.6335 11.8977 11.6335 11.7833 11.6911C11.1541 11.8063 10.6965 12.3246 10.5249 13.0733C10.4677 13.4188 10.5821 13.7644 10.8681 14.2827C14.0142 19.6387 15.1582 25.5707 14.1858 31.7906C13.7282 34.9005 12.6413 37.9529 10.8109 41.0052C10.3533 41.8691 10.5249 42.7906 11.3257 43.3089Z" fill="#39A7E3"/>
<path d="M2.97447 37.377C5.09089 34.4974 6.1205 31.2722 6.1205 27.8167C6.1205 24.0157 5.09089 20.7906 2.97447 17.911C2.68847 17.5078 2.28807 17.2199 1.83046 17.1623C1.77326 17.1623 1.65886 17.1623 1.60166 17.1623C1.31566 17.1623 1.02966 17.2199 0.686452 17.4503C0.343249 17.7382 0.114446 18.0838 0.0572458 18.4869C4.52958e-05 18.9476 0.114446 19.4084 0.400449 19.8115C3.77528 24.6492 3.77528 30.6963 0.400449 35.534C-0.171556 36.3979 -0.0571552 37.377 0.686452 37.8953C1.43006 38.356 2.40247 38.1256 2.97447 37.377Z" fill="#39A7E3"/>
</g>
<defs>
<clipPath id="clip0">
<rect width="42.5" height="55" fill="white"/>
</clipPath>
</defs>
</svg>