<?xml version="1.0" encoding="utf-8"?>
<!-- Generator: Adobe Illustrator 22.0.1, SVG Export Plug-In . SVG Version: 6.00 Build 0)  -->
<svg version="1.1" id="Capa_1" xmlns="http://www.w3.org/2000/svg" xmlns:xlink="http://www.w3.org/1999/xlink" x="0px" y="0px"
	 viewBox="0 0 80 80" style="enable-background:new 0 0 80 80;" xml:space="preserve">
<style type="text/css">
	.st0{fill:#009BDB;}
	.st1{fill:#858585;}
</style>
<g>
	<path class="st1" d="M27,35h25.5c0.6,0,1-0.5,1-1c0-0.6-0.5-1-1-1H27c-0.6,0-1,0.5-1,1C26,34.6,26.5,35,27,35z"/>
	<path class="st1" d="M40.5,41.1H27c-0.6,0-1,0.5-1,1c0,0.6,0.5,1,1,1h13.4c0.6,0,1-0.5,1-1C41.5,41.6,41,41.1,40.5,41.1z"/>
	<path class="st1" d="M40.5,49.1H27c-0.6,0-1,0.5-1,1c0,0.6,0.5,1,1,1h13.4c0.6,0,1-0.5,1-1C41.5,49.6,41,49.1,40.5,49.1z"/>
	<path class="st1" d="M63.8,46.2V23.8L48.9,8.9H15.8v61.2H48c2.5,2.2,5.8,3.5,9.5,3.5c8,0,14.5-6.5,14.5-14.5
		C72,53.5,68.6,48.5,63.8,46.2z M49.5,12.4l10.8,10.8H49.5V12.4z M17.9,11h29.6v14.3h14.3v20.1c-1.3-0.4-2.8-0.6-4.2-0.6
		c-8,0-14.5,6.5-14.5,14.5c0,3.3,1.2,6.4,3.1,8.9H17.9V11z M57.5,71.4c-6.8,0-12.3-5.5-12.3-12.3c0-6.8,5.5-12.3,12.3-12.3
		c6.8,0,12.3,5.5,12.3,12.3C69.8,65.9,64.3,71.4,57.5,71.4z"/>
	<path class="st1" d="M63.9,58.5c-0.3-0.2-0.6-0.3-0.9-0.2c-0.3,0.1-0.6,0.2-0.8,0.5l-3.6,5V51c0-1.9-2.4-2.1-2.4,0v12.7l-3.5-5
		c-0.2-0.3-0.5-0.4-0.8-0.5c-0.3-0.1-0.6,0-0.9,0.2c-0.3,0.2-0.4,0.5-0.5,0.8c0,0.3,0,0.6,0.2,0.9l6.6,9.4l6.6-9.4
		c0.1-0.2,0.2-0.5,0.2-0.7C64.3,59.1,64.2,58.7,63.9,58.5z"/>
</g>
</svg>
