<svg width="40" height="40" viewBox="0 0 40 40" fill="none" xmlns="http://www.w3.org/2000/svg">
<g opacity="0.5">
<path d="M20 39.6357C31.0457 39.6357 40 30.763 40 19.8179C40 8.87276 31.0457 0 20 0C8.95431 0 0 8.87276 0 19.8179C0 30.763 8.95431 39.6357 20 39.6357Z" fill="#5C636A"/>
<path d="M31.9498 21.4128V29.5833H27.1693V21.9604C27.1693 20.0464 26.479 18.7393 24.7481 18.7393C23.4272 18.7393 22.6425 19.6193 22.296 20.4713C22.1702 20.7759 22.1377 21.1987 22.1377 21.6258V29.5829H17.3568C17.3568 29.5829 17.421 16.6723 17.3568 15.3358H22.1381V17.3548C22.1284 17.3707 22.1149 17.3862 22.1063 17.4014H22.1381V17.3548C22.7734 16.3861 23.9064 15.0013 26.4466 15.0013C29.5918 15.0013 31.9498 17.0375 31.9498 21.4128ZM12.3555 8.46826C10.7202 8.46826 9.65027 9.53196 9.65027 10.9295C9.65027 12.2974 10.6892 13.3918 12.2928 13.3918H12.3238C13.9912 13.3918 15.028 12.2974 15.028 10.9295C14.9963 9.53196 13.9912 8.46826 12.3555 8.46826ZM9.93441 29.5833H14.7136V15.3358H9.93441V29.5833Z" fill="#F1F2F2"/>
</g>
</svg>
