<svg width="31" height="43" viewBox="0 0 31 43" fill="none" xmlns="http://www.w3.org/2000/svg">
<path fill-rule="evenodd" clip-rule="evenodd" d="M0 15.0451C0 6.74922 6.74922 0 15.0451 0C23.3409 0 30.0901 6.74922 30.0901 15.0451C30.0901 17.7648 29.3564 20.4302 27.968 22.7532L16.3296 42.1854C16.105 42.5605 15.7011 42.7914 15.2639 42.7949H15.2539C14.8205 42.7949 14.4174 42.5709 14.1887 42.2022L2.24581 22.9564C0.776409 20.5833 0 17.848 0 15.0451ZM15.235 39.1327L25.8162 21.4658C26.9715 19.5325 27.591 17.3119 27.591 15.0451C27.591 8.13186 21.9583 2.49079 15.0451 2.49079C8.13186 2.49079 2.49079 8.13186 2.49079 15.0451C2.49079 17.3812 3.15395 19.6601 4.37703 21.6353L15.235 39.1327Z" fill="#55CAEE"/>
<path fill-rule="evenodd" clip-rule="evenodd" d="M7.70312 14.9782C7.70312 10.9667 10.9667 7.70306 14.9783 7.70306C18.9898 7.70306 22.2534 10.9667 22.2534 14.9782C22.2534 18.9203 19.093 22.2533 14.9783 22.2533C10.9136 22.2533 7.70312 18.9641 7.70312 14.9782ZM10.2708 14.9782C10.2708 17.5717 12.3794 19.6856 14.9821 19.6856C17.6261 19.6856 19.6856 17.5339 19.6856 14.9782C19.6856 12.3911 17.5713 10.2708 14.9821 10.2708C12.3929 10.2708 10.2708 12.3911 10.2708 14.9782Z" fill="#55CAEE"/>
</svg>
