<?xml version="1.0" encoding="UTF-8"?>
<svg width="472px" height="73px" viewBox="0 0 472 73" version="1.1" xmlns="http://www.w3.org/2000/svg" xmlns:xlink="http://www.w3.org/1999/xlink">
    <!-- Generator: Sketch 52.6 (67491) - http://www.bohemiancoding.com/sketch -->
    <title>Android_logo_2019</title>
    <desc>Created with Sketch.</desc>
    <g id="Page-1" stroke="none" stroke-width="1" fill="none" fill-rule="evenodd">
        <g id="Android_logo_2019" transform="translate(-1.000000, 0.000000)" fill="#000000">
            <g id="g80302">
                <path d="M24.2544576,23.6339411 C13.0937193,23.6339411 1.61749549,32.577366 1.61749549,48.2316011 C1.61749549,62.5426563 11.7077809,72.6509657 24.2544576,72.6509657 C34.6111163,72.6509657 39.2269237,65.6994567 39.2269237,65.6994567 L39.2269237,68.7296025 C39.2269237,70.1618004 40.5810284,71.7597483 42.2570696,71.7597483 L49.7433026,71.7597483 L49.7433026,24.7034215 L39.2269237,24.7034215 L39.2269237,30.6745979 C39.2269237,30.6745979 34.5724424,23.6339411 24.2544576,23.6339411 Z M26.1277583,33.2559905 C35.3154153,33.2559905 40.1348361,41.336174 40.1348361,48.2281 C40.1348361,55.9045905 34.4126897,63.1949904 26.1472411,63.1950228 C19.2378422,63.1950228 12.3166433,57.5991744 12.3166433,48.1267959 C12.3166433,39.5763016 18.272778,33.2559905 26.1277583,33.2559905 Z" id="path825" fill-rule="nonzero"></path>
                <path d="M64.3592753,71.7597807 C62.7435627,71.7597807 61.3291295,70.6008933 61.3291295,68.7296349 L61.3291295,24.703454 L71.8455083,24.703454 L71.8455083,30.5266128 C74.2285393,26.9447239 78.8841876,23.6196451 86.0302332,23.6196451 C97.7100379,23.6196451 103.929401,32.9302611 103.929401,41.6366179 L103.929401,71.7597807 L96.6213988,71.7597807 C94.7051452,71.7597807 93.4130225,70.1556087 93.4130225,68.5514044 L93.4130225,43.9537768 C93.4130225,39.1278401 90.4562047,33.2668827 83.617897,33.2668827 C76.2391598,33.2668827 71.8455083,40.2403059 71.8455083,46.8056597 L71.8455083,71.7597807 L64.3592753,71.7597807 Z" id="path829"></path>
                <path d="M134.587288,23.6339411 C123.426582,23.6339411 111.950358,32.577366 111.950358,48.2316011 C111.950358,62.5426563 122.040644,72.6509657 134.587288,72.6509657 C144.943947,72.6509657 149.559787,65.6994567 149.559787,65.6994567 L149.559787,68.7296025 C149.559787,70.1618004 150.913891,71.7597483 152.589932,71.7597483 L160.076166,71.7597483 L160.076166,1.17527437 L149.559787,1.17527437 L149.559787,30.6745655 C149.559787,30.6745655 144.905273,23.6339411 134.587288,23.6339411 Z M136.460621,33.2559905 C145.648278,33.2559905 150.467699,41.336174 150.467699,48.2281 C150.467699,55.9045905 144.74552,63.1949904 136.480104,63.1950228 C129.570705,63.1950228 122.649506,57.5991744 122.649506,48.1267959 C122.649506,39.5762692 128.605609,33.2559905 136.460621,33.2559905 Z" id="path833" fill-rule="nonzero"></path>
                <path d="M174.692138,71.7597807 C173.076426,71.7597807 171.661992,70.6008933 171.661992,68.7296349 L171.661992,24.703454 L182.178371,24.703454 L182.178371,32.5461805 C183.988491,28.1526587 187.894553,24.16873 194.833679,24.16873 C196.768118,24.16873 198.576811,24.5252234 198.576811,24.5252234 L198.576811,35.3980634 C198.576811,35.3980634 196.318328,34.5068459 193.585968,34.5068459 C186.20723,34.5068459 182.178371,41.4802691 182.178371,48.0456553 L182.178371,71.7597807 L174.692138,71.7597807 Z" id="path835"></path>
                <path d="M262.388039,71.7597807 C260.772327,71.7597807 259.357893,70.6008933 259.357893,68.7296349 L259.357893,24.703454 L269.874272,24.703454 L269.874272,71.7597807 L262.388039,71.7597807 Z" id="path837"></path>
                <path d="M300.710454,23.6339411 C289.549716,23.6339411 278.073492,32.577366 278.073492,48.2316011 C278.073492,62.5426563 288.163777,72.6509657 300.710454,72.6509657 C311.06708,72.6509657 315.682904,65.6994567 315.682904,65.6994567 L315.682904,68.7296025 C315.682904,70.1618004 317.037009,71.7597483 318.71305,71.7597483 L326.199283,71.7597483 L326.199283,1.17527437 L315.682904,1.17527437 L315.682904,30.6745655 C315.682904,30.6745655 311.028439,23.6339411 300.710454,23.6339411 Z M302.583755,33.2559905 C311.771412,33.2559905 316.590817,41.336174 316.590817,48.2281 C316.590817,55.9045905 310.868686,63.1949904 302.603238,63.1950228 C295.693839,63.1950228 288.77264,57.5991744 288.77264,48.1267959 C288.77264,39.5762692 294.728775,33.2559905 302.583755,33.2559905 Z" id="path839" fill-rule="nonzero"></path>
                <circle id="path841" cx="264.533305" cy="7.59841326" r="6.955564"></circle>
                <path d="M226.311108,23.6182836 C214.62281,23.6182836 201.781362,32.343021 201.781362,48.1480292 C201.781362,62.5505013 212.719264,72.6527163 226.285693,72.6527163 C243.004935,72.6527163 251.168787,59.2121963 251.168787,48.2392516 C251.168787,34.7743214 240.656363,23.6182836 226.311108,23.6182836 Z M226.34936,33.439116 C234.432137,33.439116 240.461244,39.953607 240.461244,48.1776262 C240.461244,56.5442818 234.061056,63.0004215 226.373382,63.0004215 C219.236964,63.0004215 212.299784,57.1928555 212.299784,48.3182851 C212.299784,39.2957944 218.897749,33.439116 226.34936,33.439116 Z" id="path843" fill-rule="nonzero"></path>
            </g>
            <path d="M440.226651,21.9953202 L450.844544,3.28841065 C451.443719,2.23969472 451.08143,0.907532333 450.064224,0.298138954 C449.047027,-0.311244578 447.723271,0.0430474862 447.138034,1.09176834 L436.380797,20.0396041 C428.173524,16.2273579 418.935126,14.101576 408.999997,14.101576 C399.064878,14.101576 389.826476,16.2273579 381.619202,20.0396041 L370.861965,1.09176834 C370.262791,0.0430474862 368.952973,-0.311244578 367.921838,0.298138954 C366.890699,0.907532333 366.542344,2.23969472 367.141518,3.28841065 L377.759416,21.9953202 C359.449816,32.0857214 347.048332,50.9343468 345,73 L473,73 C470.951664,50.9343468 458.550176,32.0857214 440.226651,21.9953202 Z M379.499966,55 C376.457125,55 374,52.5285699 374,49.5000025 C374,46.4571363 376.471414,44 379.499966,44 C382.542808,44 384.999938,46.4714252 384.999938,49.5000025 C385.014281,52.5285699 382.542808,55 379.499966,55 Z M438.499974,55 C435.457139,55 433,52.5285699 433,49.5000025 C433,46.4571363 435.471418,44 438.499974,44 C441.542819,44 443.999938,46.4714252 443.999938,49.5000025 C444.014232,52.5285699 441.542819,55 438.499974,55 Z" id="path80319" fill-rule="nonzero"></path>
        </g>
    </g>
</svg>