<svg width="46" height="55" viewBox="0 0 46 55" fill="none" xmlns="http://www.w3.org/2000/svg">
<g clip-path="url(#clip0)">
<rect width="46" height="55" fill="white"/>
<path d="M44.7546 8.21267C36.0362 8.21267 29.3936 5.72398 23.8304 0.331825C23.5813 0.0829562 23.3322 0 23.0001 0C22.751 0 22.4189 0.0829562 22.1698 0.331825C16.6066 5.72398 9.96402 8.21267 1.24561 8.21267C0.581345 8.21267 0.0831504 8.71041 0.0831504 9.37406C0.0831504 10.7843 0.0831504 12.1946 0.000117909 13.7707C-0.24898 27.7903 -0.664141 46.9532 22.585 54.917C22.8341 55 23.0831 55 23.3322 54.917C46.4983 46.8703 46.1662 27.7074 45.9171 13.7707C45.9171 12.1946 45.834 10.7843 45.834 9.37406C45.9171 8.79336 45.3358 8.21267 44.7546 8.21267ZM23.2492 52.5113L23.0001 52.5943L22.751 52.5113C1.7438 44.9623 2.07593 28.371 2.40806 13.8537C2.40806 13.0241 2.40806 12.1946 2.49109 11.365V10.6184H3.23838C11.0434 10.2866 17.1878 7.9638 22.5019 3.31825L23.0831 2.82051L23.6644 3.31825C28.9785 7.9638 35.1229 10.2866 42.9279 10.6184H43.6752V11.365C43.6752 12.1946 43.6752 13.0241 43.7582 13.8537C43.9243 28.371 44.2564 44.9623 23.2492 52.5113Z" fill="#00A0DF"/>
<path d="M40.769 17.3378C40.769 16.1764 40.6859 15.098 40.6859 14.0196C40.6859 13.4389 40.1877 12.9412 39.6065 12.9412C33.0469 12.9412 27.982 11.0332 23.8303 7.05126C23.4152 6.63648 22.7509 6.63648 22.3358 7.05126C18.1841 11.1161 13.1191 12.9412 6.55958 12.9412C5.97835 12.9412 5.48016 13.4389 5.48016 14.0196C5.48016 15.098 5.48016 16.3424 5.39713 17.3378C5.23106 27.9562 4.98196 42.4736 22.7509 48.6123C22.8339 48.6123 23 48.6953 23.083 48.6953C23.1661 48.6953 23.3321 48.6953 23.4152 48.6123C41.2672 42.4736 40.935 27.9562 40.769 17.3378ZM23.2491 46.3725L23.083 46.4555L22.917 46.3725C7.14081 40.6485 7.38991 28.2881 7.55597 17.3378C7.55597 16.6742 7.55597 16.0935 7.55597 15.4298V15.0151H7.97113C13.9495 14.7662 18.6823 13.0241 22.7509 9.45699L23 9.20812L23.2491 9.45699C27.3177 13.0241 32.0506 14.7662 38.0289 15.0151H38.4441V15.4298C38.4441 16.0105 38.4441 16.5912 38.4441 17.1719V17.3378C38.7762 28.2881 39.0253 40.7315 23.2491 46.3725Z" fill="#00A0DF"/>
<path d="M32.881 23.2278C33.1301 22.9789 33.2131 22.73 33.2131 22.3982C33.2131 22.0664 33.1301 21.8175 32.881 21.5686C32.6319 21.3198 32.3828 21.2368 32.0506 21.2368C31.7185 21.2368 31.4694 21.3198 31.2203 21.5686L21.0904 31.6893L16.4405 27.0438C16.1914 26.7949 15.9423 26.7119 15.6102 26.7119C15.2781 26.7119 15.029 26.7949 14.7799 27.0438C14.5308 27.2926 14.4478 27.5415 14.4478 27.8733C14.4478 28.2051 14.5308 28.454 14.7799 28.7029L20.26 34.178C20.6752 34.5928 21.4225 34.5928 21.9207 34.178L32.881 23.2278Z" fill="#00A0DF"/>
</g>
<defs>
<clipPath id="clip0">
<rect width="46" height="55" fill="white"/>
</clipPath>
</defs>
</svg>