<svg width="86" height="39" viewBox="0 0 86 39" fill="none" xmlns="http://www.w3.org/2000/svg">
<g clip-path="url(#clip0)">
<path d="M19.7083 39V19.2759H22.8437V20.6207C23.2916 19.9483 24.1874 19.5 24.8593 19.2759C25.5312 19.0518 26.203 19.0518 26.8749 19.0518C28.6666 19.0518 30.4583 19.7242 32.026 21.2931C33.3697 22.8621 34.2655 24.6552 34.2655 26.6724C34.2655 27.569 34.0416 28.6897 33.8176 29.5862C33.3697 30.4828 32.9218 31.3793 32.2499 32.0518C31.578 32.7242 30.6822 33.3966 29.7864 33.6207C28.8905 34.069 27.9947 34.069 27.0989 34.069C26.427 34.069 25.5312 33.8449 24.8593 33.6207C24.1874 33.3966 23.2916 32.9483 22.8437 32.2759V39.2242H19.7083V39ZM26.8749 21.7414C25.7551 21.7414 24.6353 22.1897 23.9635 22.8621C23.0676 23.7587 22.8437 25.1035 22.8437 26.2242C22.8437 27.569 23.0676 28.9138 23.9635 29.8104C24.8593 30.7069 25.7551 30.9311 27.0989 30.9311C28.2187 30.9311 29.3385 30.4828 30.0103 29.5862C30.9062 28.6897 31.3541 27.569 31.3541 26.2242C31.3541 24.8793 30.9062 23.5345 30.0103 22.638C29.1145 22.1897 27.9947 21.7414 26.8749 21.7414Z" fill="#344690"/>
<path d="M64.5 19.2759L60.2448 29.3621L55.9896 19.2759H52.6302L58.6771 32.7242L55.9896 39H59.349L67.8594 19.2759H64.5Z" fill="#344690"/>
<path d="M47.4791 33.6207V32.0518C47.0312 32.7242 46.1354 33.1725 45.4635 33.3966C44.7916 33.6207 43.8958 33.8449 43.2239 33.8449C42.1041 33.8449 41.4323 33.6207 40.5364 33.3966C39.6406 32.9483 38.9687 32.5001 38.0729 31.8276C37.401 31.1552 36.9531 30.2587 36.5052 29.3621C36.0572 28.4656 36.0573 27.569 36.0573 26.4483C36.0573 24.4311 36.7291 22.638 38.2968 21.069C39.8645 19.5001 41.6562 18.8276 43.4479 18.8276C44.1198 18.8276 44.7916 19.0518 45.4635 19.2759C46.1354 19.5001 47.0312 19.9483 47.4791 20.6207V19.2759H50.6145V33.6207H47.4791ZM40.5364 22.8621C39.6406 23.7587 39.1927 25.1035 39.1927 26.4483C39.1927 27.7932 39.6406 28.9138 40.5364 29.8104C41.2083 30.4828 42.3281 31.1552 43.4479 31.1552C44.5677 31.1552 45.6875 30.9311 46.5833 30.0345C47.4791 29.138 47.7031 27.7932 47.7031 26.4483C47.7031 25.1035 47.4791 23.9828 46.5833 23.0863C45.6875 22.1897 44.7916 21.9656 43.6718 21.9656C42.3281 21.7414 41.2083 22.1897 40.5364 22.8621Z" fill="#344690"/>
<path d="M71.2187 10.0862L70.9948 0.448242H73.9062V12.5517H69.651L66.5156 2.46548L66.7395 12.5517H63.6041V0.448242H68.3073L70.9948 10.0862H71.2187Z" fill="#344690"/>
<path d="M15.9011 1.56893L14.1094 12.7758H10.974L13.2136 0.448242H18.5886L20.8282 12.7758H17.4688L15.9011 1.56893Z" fill="#344690"/>
<path d="M30.2343 9.86204L31.802 0.448242H36.7291L36.9531 12.7758H33.8177V1.56893L31.802 12.7758H28.6666L26.427 1.56893V12.7758H23.2916L23.5156 0.448242H28.6666L30.2343 9.86204Z" fill="#344690"/>
<path d="M55.9896 10.7586C56.8854 10.7586 57.1094 10.0862 57.1094 9.86204C57.1094 9.6379 57.1094 9.6379 57.1094 9.41376V0.448242H60.2448V9.18962C60.2448 9.41376 60.2448 9.86204 60.2448 10.0862C60.0208 12.3276 58.2292 13.2241 55.9896 13.2241C53.75 13.2241 51.9583 12.5517 51.7344 10.0862C51.7344 9.86204 51.7344 9.41376 51.7344 9.18962V0.448242H54.8698V9.6379C54.8698 9.86204 54.8698 10.0862 54.8698 10.0862C54.8698 10.3103 55.0937 10.7586 55.9896 10.7586Z" fill="#344690"/>
<path d="M5.59896 9.18966C5.82292 9.41379 5.59896 9.86207 5.59896 10.0862C5.59896 10.5345 5.15104 10.9828 4.47917 10.9828C3.80729 10.9828 3.35938 10.5345 3.35938 9.86207V8.74138H0V9.63793C0 12.3276 2.23958 13.2241 4.47917 13.2241C6.71875 13.2241 8.51042 12.5517 8.73438 10.5345C8.95833 9.41379 8.73438 8.74138 8.73438 8.51724C8.28646 5.82759 3.58333 4.93104 3.35938 3.58621C3.35938 3.36207 3.35938 3.13793 3.35938 2.91379C3.35938 2.46552 3.80729 2.01724 4.47917 2.01724C5.15104 2.01724 5.59896 2.46552 5.59896 3.13793V3.81035H8.73438V3.13793C8.51042 0.448276 6.27083 0 4.47917 0C2.23958 0 0.447917 0.672414 0.223958 2.68966C0.223958 3.13793 0.223958 3.81035 0.223958 4.25862C0.671875 6.94828 5.15104 7.62069 5.59896 9.18966Z" fill="#344690"/>
<path d="M45.6875 9.18965C45.9114 9.41379 45.6875 9.86207 45.6875 10.0862C45.6875 10.5345 45.2395 10.9828 44.5677 10.9828C43.8958 10.9828 43.4479 10.5345 43.4479 9.86207V8.51724H40.0885V9.41379C40.0885 12.1034 42.3281 13 44.5677 13C46.8073 13 48.5989 12.3276 48.8229 10.3103C49.0468 9.18965 48.8229 8.51724 48.8229 8.2931C48.375 5.82759 43.6718 4.93103 43.4479 3.58621C43.4479 3.36207 43.4479 3.13793 43.4479 2.91379C43.4479 2.46552 43.8958 2.01724 44.5677 2.01724C45.2395 2.01724 45.6875 2.46552 45.6875 3.13793V3.81034H48.8229V3.13793C48.8229 0.448276 46.3593 0 44.7916 0C42.552 0 40.7604 0.672414 40.5364 2.68966C40.5364 3.13793 40.5364 3.81034 40.5364 4.25862C40.7604 6.94828 45.0156 7.62069 45.6875 9.18965Z" fill="#344690"/>
<path d="M81.5208 10.7586C82.4167 10.7586 82.6406 10.3104 82.8646 9.86209C82.8646 9.63795 82.8646 9.63795 82.8646 9.41381V7.62071H81.5208V5.8276H85.776V8.96553C85.776 9.18967 85.776 9.41381 85.776 9.86209C85.5521 12.1035 83.5365 13 81.5208 13C79.2813 13 77.4896 12.1035 77.2656 9.86209C77.2656 9.41381 77.2656 9.18967 77.2656 8.96553V3.81036C77.2656 3.58622 77.2656 3.13795 77.2656 2.91381C77.4896 0.672431 79.2813 -0.224121 81.5208 -0.224121C83.7604 -0.224121 85.5521 0.448293 85.776 2.91381C85.776 3.36209 85.776 3.81036 85.776 3.81036V4.25864H82.8646V3.58622C82.8646 3.58622 82.8646 3.36209 82.8646 3.13795C82.8646 2.91381 82.6406 2.2414 81.7448 2.2414C80.849 2.2414 80.625 2.91381 80.625 3.13795C80.625 3.36209 80.625 3.58622 80.625 3.81036V9.41381C80.625 9.63795 80.625 9.63795 80.625 9.86209C80.401 10.0862 80.625 10.7586 81.5208 10.7586Z" fill="#344690"/>
</g>
<defs>
<clipPath id="clip0">
<rect width="86" height="39" fill="white"/>
</clipPath>
</defs>
</svg>