109.04.08 12:09 B W:\OceanBankforReal\pressreleases\Bicycle distribution.dec.08.pdf --> ftp.designchateau.com /design16/designchateau.com/OceanBank2/pressreleases Bicycle distribution.dec.08.pdf
109.04.08 12:09 B W:\OceanBankforReal\pressreleases\Camillus House.nov.08.pdf --> ftp.designchateau.com /design16/designchateau.com/OceanBank2/pressreleases Camillus House.nov.08.pdf
109.04.08 12:09 B W:\OceanBankforReal\pressreleases\education fund may.08.pdf --> ftp.designchateau.com /design16/designchateau.com/OceanBank2/pressreleases education fund may.08.pdf
109.04.08 12:09 B W:\OceanBankforReal\pressreleases\Identity thief june.08.pdf --> ftp.designchateau.com /design16/designchateau.com/OceanBank2/pressreleases Identity thief june.08.pdf
109.04.08 12:09 B W:\OceanBankforReal\pressreleases\Latin Builders Assoc.jan.2008.pdf --> ftp.designchateau.com /design16/designchateau.com/OceanBank2/pressreleases Latin Builders Assoc.jan.2008.pdf
109.04.08 12:09 B W:\OceanBankforReal\pressreleases\Miguel Cervoni.feb.08.pdf --> ftp.designchateau.com /design16/designchateau.com/OceanBank2/pressreleases Miguel Cervoni.feb.08.pdf
109.04.08 12:09 B W:\OceanBankforReal\pressreleases\New officers.feb.08.pdf --> ftp.designchateau.com /design16/designchateau.com/OceanBank2/pressreleases New officers.feb.08.pdf
109.04.08 12:09 B W:\OceanBankforReal\pressreleases\Palm beach june.08.pdf --> ftp.designchateau.com /design16/designchateau.com/OceanBank2/pressreleases Palm beach june.08.pdf
109.04.08 12:09 B W:\OceanBankforReal\pressreleases\Sam Monti.Hugo Loynaz.july.08.pdf --> ftp.designchateau.com /design16/designchateau.com/OceanBank2/pressreleases Sam Monti.Hugo Loynaz.july.08.pdf
109.04.08 12:09 B W:\OceanBankforReal\pressreleases\terry curry.march.08.pdf --> ftp.designchateau.com /design16/designchateau.com/OceanBank2/pressreleases terry curry.march.08.pdf
109.04.08 12:09 B W:\OceanBankforReal\pressreleases\wealth management march.08.pdf --> ftp.designchateau.com /design16/designchateau.com/OceanBank2/pressreleases wealth management march.08.pdf
109.04.13 16:07 B W:\OceanBankforReal\pressreleases-08\Bicycle distribution.dec.08.pdf --> ftp.designchateau.com /design16/designchateau.com/OceanBank2/pressreleases-08 Bicycle distribution.dec.08.pdf
109.04.13 16:07 B W:\OceanBankforReal\pressreleases-08\Camillus House.nov.08.pdf --> ftp.designchateau.com /design16/designchateau.com/OceanBank2/pressreleases-08 Camillus House.nov.08.pdf
109.04.13 16:07 B W:\OceanBankforReal\pressreleases-08\education fund may.08.pdf --> ftp.designchateau.com /design16/designchateau.com/OceanBank2/pressreleases-08 education fund may.08.pdf
109.04.13 16:07 B W:\OceanBankforReal\pressreleases-08\Identity thief june.08.pdf --> ftp.designchateau.com /design16/designchateau.com/OceanBank2/pressreleases-08 Identity thief june.08.pdf
109.04.13 16:07 B W:\OceanBankforReal\pressreleases-08\Latin Builders Assoc.jan.2008.pdf --> ftp.designchateau.com /design16/designchateau.com/OceanBank2/pressreleases-08 Latin Builders Assoc.jan.2008.pdf
109.04.13 16:07 B W:\OceanBankforReal\pressreleases-08\Miguel Cervoni.feb.08.pdf --> ftp.designchateau.com /design16/designchateau.com/OceanBank2/pressreleases-08 Miguel Cervoni.feb.08.pdf
109.04.13 16:07 B W:\OceanBankforReal\pressreleases-08\New officers.feb.08.pdf --> ftp.designchateau.com /design16/designchateau.com/OceanBank2/pressreleases-08 New officers.feb.08.pdf
109.04.13 16:07 B W:\OceanBankforReal\pressreleases-08\Palm beach june.08.pdf --> ftp.designchateau.com /design16/designchateau.com/OceanBank2/pressreleases-08 Palm beach june.08.pdf
109.04.13 16:07 B W:\OceanBankforReal\pressreleases-08\Sam Monti.Hugo Loynaz.july.08.pdf --> ftp.designchateau.com /design16/designchateau.com/OceanBank2/pressreleases-08 Sam Monti.Hugo Loynaz.july.08.pdf
109.04.13 16:07 B W:\OceanBankforReal\pressreleases-08\terry curry.march.08.pdf --> ftp.designchateau.com /design16/designchateau.com/OceanBank2/pressreleases-08 terry curry.march.08.pdf
109.04.13 16:07 B W:\OceanBankforReal\pressreleases-08\wealth management march.08.pdf --> ftp.designchateau.com /design16/designchateau.com/OceanBank2/pressreleases-08 wealth management march.08.pdf
109.04.13 16:07 B W:\OceanBankforReal\pressreleases-08\WS_FTP.LOG --> ftp.designchateau.com /design16/designchateau.com/OceanBank2/pressreleases-08 WS_FTP.LOG
109.04.15 10:01 B W:\OceanBankforReal\pressreleases-08\Bicycle distribution.dec.08.pdf --> ftp.designchateau.com /design16/designchateau.com/OceanBank0/pressreleases-08 Bicycle distribution.dec.08.pdf
109.04.15 10:01 B W:\OceanBankforReal\pressreleases-08\Camillus House.nov.08.pdf --> ftp.designchateau.com /design16/designchateau.com/OceanBank0/pressreleases-08 Camillus House.nov.08.pdf
109.04.15 10:01 B W:\OceanBankforReal\pressreleases-08\education fund may.08.pdf --> ftp.designchateau.com /design16/designchateau.com/OceanBank0/pressreleases-08 education fund may.08.pdf
109.04.15 10:01 B W:\OceanBankforReal\pressreleases-08\Identity thief june.08.pdf --> ftp.designchateau.com /design16/designchateau.com/OceanBank0/pressreleases-08 Identity thief june.08.pdf
109.04.15 10:01 B W:\OceanBankforReal\pressreleases-08\Latin Builders Assoc.jan.2008.pdf --> ftp.designchateau.com /design16/designchateau.com/OceanBank0/pressreleases-08 Latin Builders Assoc.jan.2008.pdf
109.04.15 10:01 B W:\OceanBankforReal\pressreleases-08\Miguel Cervoni.feb.08.pdf --> ftp.designchateau.com /design16/designchateau.com/OceanBank0/pressreleases-08 Miguel Cervoni.feb.08.pdf
109.04.15 10:01 B W:\OceanBankforReal\pressreleases-08\New officers.feb.08.pdf --> ftp.designchateau.com /design16/designchateau.com/OceanBank0/pressreleases-08 New officers.feb.08.pdf
109.04.15 10:01 B W:\OceanBankforReal\pressreleases-08\Palm beach june.08.pdf --> ftp.designchateau.com /design16/designchateau.com/OceanBank0/pressreleases-08 Palm beach june.08.pdf
109.04.15 10:01 B W:\OceanBankforReal\pressreleases-08\Sam Monti.Hugo Loynaz.july.08.pdf --> ftp.designchateau.com /design16/designchateau.com/OceanBank0/pressreleases-08 Sam Monti.Hugo Loynaz.july.08.pdf
109.04.15 10:01 B W:\OceanBankforReal\pressreleases-08\terry curry.march.08.pdf --> ftp.designchateau.com /design16/designchateau.com/OceanBank0/pressreleases-08 terry curry.march.08.pdf
109.04.15 10:01 B W:\OceanBankforReal\pressreleases-08\wealth management march.08.pdf --> ftp.designchateau.com /design16/designchateau.com/OceanBank0/pressreleases-08 wealth management march.08.pdf
109.04.15 10:01 B W:\OceanBankforReal\pressreleases-08\WS_FTP.LOG --> ftp.designchateau.com /design16/designchateau.com/OceanBank0/pressreleases-08 WS_FTP.LOG
