<?xml version="1.0" encoding="utf-8"?>
<!-- Generator: Adobe Illustrator 22.0.1, SVG Export Plug-In . SVG Version: 6.00 Build 0)  -->
<svg version="1.1" id="Capa_1" xmlns="http://www.w3.org/2000/svg" xmlns:xlink="http://www.w3.org/1999/xlink" x="0px" y="0px"
	 viewBox="0 0 80 80" style="enable-background:new 0 0 80 80;" xml:space="preserve">
<style type="text/css">
	.st0{fill:#009BDB;}
	.st1{fill:#858585;}
</style>
<g>
	<path class="st1" d="M61,59.6c5.4-5.5,8.4-12.8,8.4-20.5C69.4,23,56.3,9.9,40.2,9.9C24.2,9.9,11.1,23,11.1,39.1
		c0,14.7,11,27.2,25.6,28.9l0.6,0.1l-4.4,4.4c-0.2,0.2-0.4,0.6-0.4,0.9c0,0.3,0.1,0.7,0.4,0.9c0.5,0.5,1.3,0.5,1.8,0l6.4-6.4
		c0.1-0.1,0.2-0.3,0.3-0.4c0.1-0.3,0.1-0.6,0-1c-0.1-0.1-0.2-0.3-0.3-0.4l-6.4-6.4c-0.2-0.2-0.6-0.4-0.9-0.4h0
		c-0.3,0-0.7,0.1-0.9,0.4c-0.2,0.2-0.4,0.6-0.4,0.9s0.1,0.6,0.4,0.9l4.1,4.1l-1-0.2c-13-2-22.5-13.1-22.5-26.3
		c0-14.7,12-26.6,26.6-26.6s26.6,12,26.6,26.6c0,7.1-2.7,13.7-7.7,18.8c-0.2,0.2-0.4,0.6-0.4,0.9c0,0.3,0.1,0.6,0.4,0.9
		C59.7,60.1,60.5,60.1,61,59.6z"/>
	<path class="st1" d="M49.8,44c0-2.5-0.9-4.3-2.7-5.5c-1.1-0.7-3.1-1.5-6.1-2.4L40.9,36V25.2l0.3,0c1.8,0.2,3.2,0.9,4,2.3
		c0.5,0.7,0.7,1.6,0.9,2.6h3C49,28,48.3,26.3,46.9,25c-1.3-1.3-3.3-2.1-5.8-2.3l-0.3,0v-2.8h-2.3v2.8l-0.3,0
		c-2.5,0.1-4.4,0.9-5.8,2.4c-1.5,1.6-2.2,3.5-2.2,5.5c0,2.3,0.7,4,2.1,5.3c1.3,1.2,3.3,2.1,6,2.7l0.3,0.1v12l-0.4,0
		c-2.2-0.3-3.7-1.2-4.5-2.7c-0.5-0.9-0.8-2.2-0.9-4h-3.1c0,2.2,0.4,3.9,1.1,5.2c1.3,2.3,3.8,3.7,7.5,4.1l0.3,0v4.1h2.3v-4.1l0.3,0
		c2.3-0.3,4-0.8,5.2-1.6C48.7,50.1,49.8,47.5,49.8,44z M38.6,35.5l-0.4-0.1c-1.4-0.4-2.5-0.9-3.3-1.5c-1-0.8-1.5-2-1.5-3.5
		c0-1.2,0.4-2.4,1.2-3.5c0.7-1,2-1.6,3.6-1.7l0.3,0V35.5z M41.2,50.8l-0.3,0V39.2l0.4,0.1c1.6,0.5,2.7,0.9,3.4,1.4
		c1.4,1,2.1,2.4,2.1,4.2c0,1.2-0.3,2.2-0.7,3.1C45.1,49.6,43.5,50.6,41.2,50.8z"/>
</g>
</svg>
